{
	"ReportingSort": "start",
	"ReportingPeriodFrom": "01.04.2015",
	"ReportingPeriodTill": "20.06.2015",
	"ReportingPeriodFromDate": "2015-04-01T00:00:00.000Z",
	"ReportingPeriodTillDate": "2015-06-20T00:00:00.000Z",
	"ShowLatinName": true
}