﻿"CODE";"NAME";"ACTUALITYSTATUS"
"3037";"Более не является подозреваемым или привлеченным в качестве обвиняемого";"Actual"
"3038";"Отбыл наказание или освобожден от наказания";"Actual"
"3039";"Исполнил обязательства, наложенные судом, или сторонами достигнуто соглашение";"Actual"
"3040";"Истечение срока ограничения на выезд, связанного с допуском к сведениям особой важности или совершенно секретным сведениям";"Actual"
"3041";"Окончание военной службы или альтернативной гражданской службы";"Actual"
