﻿"CODE";"NAME";"ACTUALITYSTATUS"
"134582";"Достижение 20 лет";"Actual"
"134583";"Достижение 45 лет";"Actual"
"134584";"Изменение установочных данных";"Actual"
"134585";"Изменение пола";"Actual"
"134587";"Обнаружение ошибок";"Actual"
"135990";"Обмен паспорта СССР";"Actual"
"9051";"Изменение внешности";"Actual"
"9544";"Непригодность к использованию в связи с невозможностью проставления на страницах паспорта обязательных штампов и отметок";"Actual"
