﻿"ID";"NAME";"ACTUALITYSTATUS"
"102969";"Паспорт негражданина";"Actual"
"102974";"Свидетельство о рождении";"Actual"
"102977";"Свидетельство о предоставлении временного убежища на территории Российской Федерации";"Actual"
"102982";"Паспорт гражданина СССР";"Actual"
"102997";"Удостоверение лица без гражданства";"Actual"
"103000";"Удостоверение беженца в Российской Федерации";"Actual"
"103008";"Паспорт гражданина Российской Федерации";"Actual"
"103012";"Иностранный паспорт";"Actual"
"103014";"Иностранное свидетельство о рождении";"Actual"
"135710";"Вид на жительство ЛБГ";"Actual"
"135717";"Разрешение на временное проживание ЛБГ (бланк)";"Actual"
"136366";"Иной документ, удостоверяющий личность";"Actual"
"139387";"Вид на жительство ЛБГ (с биометрией)";"Actual"
"139388";"Разрешение на временное проживание ЛБГ (штамп)";"Actual"
"139391";"Удостоверение беженца в Российской Федерации старого образца";"Actual"
