﻿"CODE";"NAME";"ACTUALITYSTATUS"
"1";"высшее";"Actual"
"2";"ученая степень доктора наук";"Actual"
"3";"ученая степень кандидата наук";"Actual"
"4";"неполное высшее профессиональное";"Actual"
"5";"среднее профессиональное (среднее специальное)";"Actual"
"6";"начальное профессиональное";"Actual"
"7";"среднее общее (полное)";"Actual"
"8";"основное общее (неполное среднее)";"Actual"
"9";"начальное общее (начальное) и не имеющие начального";"Actual"
