﻿"ID";"NAME";"ACTUALITYSTATUS"
"135759";"ОТКАЗ В ВЫХОДЕ ИЗ ГРАЖДАНСТВА РФ (П. А, СТ. 20) 62-ФЗ";"Actual"
"135760";"ОТКАЗ В ВЫХОДЕ ИЗ ГРАЖДАНСТВА РФ (П. Б, СТ. 20) 62-ФЗ";"Actual"
"135761";"ОТКАЗ В ВЫХОДЕ ИЗ ГРАЖДАНСТВА РФ (П. В, СТ. 20) 62-ФЗ";"Actual"
