﻿"ID";"NAME";"ACTUALITYSTATUS"
"102974";"Свидетельство о рождении";"Actual"
"103007";"Загранпаспорт гражданина Российской Федерации";"Actual"
"103008";"Паспорт гражданина Российской Федерации";"Actual"
"103014";"Иностранное свидетельство о рождении";"Actual"
"136336";"Загранпаспорт нового поколения (с биометрией)";"Actual"
"136366";"Иной документ, удостоверяющий личность";"Actual"
"139370";"Загранпаспорт, выданный за пределами Российской Федерации";"Actual"
