﻿"ID";"NAME";"ACTUALITYSTATUS"
"1";"Уклонение от исполнения административного наказания";"Historical"
"2";"Несоответствие заявленной цели въезда фактически осуществляемой деятельности";"Actual"
"3";"Нарушение иммиграционных правил";"Actual"
"4";"Нарушение беженцем или вынужденным переселенцем правил пребывания (проживания) в Российской Федерации";"Actual"
"5";"Осуществление деятельности по трудоустройству граждан РФ за границей без лицензии или с нарушением условий, предусмотренных лицензией";"Actual"
"6";"Грубое нарушение условий, предусмотренных лицензией на осуществление деятельности, связанной с трудоустройством граждан РФ за пределами РФ";"Actual"
"7";"Неуведомление о привлечении к трудовой деятельности ИГ или ЛБГ ";"Historical"
"8";"Предоставление юр. лицом или должностным лицом юр. лица площади другому юр. лицу, использующему труд ИГ или ЛБГ без наличия у них разрешения на работу";"Historical"
"9";"Несоблюдение иностранным юридическим лицом, его филиалом или представительством ограничений на осуществление отдельных видов деятельности";"Actual"
"10";"Неповиновение законному распоряжению сотрудника (ФМС) или воспрепятствование исполнению им служебных обязанностей ";"Actual"
"11";"Неповиновение законному распоряжению или требованию должностного лица органа, осуществляющего государственный надзор (контроль), а равно воспрепятствование осуществлению этим должностным лицом служебных обязанностей";"Actual"
"12";"Невыполнение в установленный срок законного предписания (постановления, представления, решения) органа (должностного лица), осуществляющего государственный надзор (контроль), об устранении нарушений законодательства";"Actual"
"13";"Непринятие по постановлению (представлению) органа (должностного лица), рассмотревшего дело об административном правонарушении, мер по устранению причин и условий, способствовавших совершению административного правонарушения";"Actual"
"14";"Непредставление или несвоевременное представление информации в государственный орган.";"Actual"
"15";"Неуплата административного штрафа в срок";"Actual"
"16";"Осуществление трудовой деятельности ИГ или ЛБГ без разрешения на работу";"Historical"
"17";"Привлечение к трудовой деятельности ИГ или ЛБГ при отсутствии у них патента";"Actual"
"18";"Проживание по месту жительства (пребывания) по недействительному паспорту";"Historical"
"19";"Проживание без регистрации по месту жительства";"Historical"
"20";"Проживание без регистрации по месту пребывания";"Historical"
"21";"Допущение проживания по месту жительства (пребывания) по недействительному паспорту ";"Historical"
"22";"Допущение проживания без регистрации по месту жительства";"Historical"
"23";"Допущение проживания без регистрации по месту пребывания";"Historical"
"24";"Небрежное хранение паспорта, повлекшее его утрату";"Actual"
"25";"Нарушение правил миграционного учета";"Actual"
"26";"Несоблюдение установленного порядка передвижения, выбора места пребывания или жительства и регистрации по месту жительства";"Actual"
"27";"Уклонение от выезда с территории РФ";"Historical"
"28";"Неподача ежегодного уведомления о подтверждении проживания";"Actual"
"29";"Отсутствие документов, подтверждающих право на пребывание (проживание) на территории РФ, либо утрата этих документов и неподача заявления об их утрате в соответствующий орган";"Historical"
"30";"Нарушение установленных правил въезда в РФ";"Actual"
"31";"Несоблюдение правил транзитного проезда через территорию РФ";"Actual"
"33";"Осуществление трудовой деятельности ИГ или ЛБГ без патента";"Historical"
"34";"Нарушение должностным лицом принимающей организации правил миграционного учета и оформления документов";"Actual"
"35";"Непринятие гражданином РФ либо постоянно проживающими в РФ иностранным гражданином (ИГ) или лицом без гражданства (ЛБГ) мер по обеспечению своевременного выезда приглашенных ими ИГ или ЛБГ";"Actual"
"36";"Предоставление жилого помещения, транспортного средства либо оказание иных услуг ИГ или ЛБГ, находящихся на территории РФ с нарушением установленного порядка";"Actual"
"37";"Неисполнение принимающей стороной обязанностей в связи с осуществлением миграционного учета";"Actual"
"38";"Непредставление или несвоевременное предоставление информации об ИГ или ЛБГ";"Actual"
"39";"Привлечение к трудовой деятельности ИГ или ЛБГ при отсутствии у них разрешения на работу ";"Actual"
"40";"Привлечение к трудовой деятельности ИГ. Или ЛБГ без получения разрешения на привлечение и использование иностранных работников";"Actual"
"41";"Нарушение правил привлечения к трудовой деятельности ИГ или ЛБГ на торговых объектах";"Actual"
"42";"Несоблюдение работодателем или заказчиком работ (услуг) в отношении ИГ или ЛБГ ограничений на осуществление отдельных видов деятельности";"Actual"
"43";"Несоблюдение ИГ или ЛБГ ограничений на осуществление отдельных видов деятельности";"Actual"
"44";"Проживание по месту жительства (пребывания) без паспорта";"Historical"
"45";"Допущение проживания по месту жительства (пребывания) без паспорта";"Historical"
"46";"Умышленные уничтожение либо порча паспорта";"Actual"
"47";"Незаконное изъятие должностным лицом удостоверения личности гражданина (паспорта)";"Actual"
"48";"Принятие удостоверения личности гражданина (паспорта) в залог";"Actual"
"49";"Представление ИГ или ЛБГ заведомо ложных сведений либо подложных документов при осуществлении миграционного учета";"Actual"
"50";"Представление заведомо ложных сведений для получения удостоверения личности гражданина (паспорта) либо других документов, удостоверяющих личность или гражданство";"Actual"
"51";"Представление при осуществлении миграционного учета заведомо ложных сведений об ИГ или ЛБГ либо подложных документов принимающей стороной";"Actual"
"54";"Предоставление торговых помещений лицам нарушающим правила привлечения к трудовой деятельности ИГ или ЛБГ на торговых объектах";"Actual"
"55";"Отсутствие документов, подтверждающих право на пребывание (проживание) в РФ, или в случае утраты таких документов в неподаче заявления об их утрате в соответствующий орган либо в уклонении от выезда из РФ по истечении определенного срока пребывания";"Actual"
"56";"Нарушения, предусмотренные частями 1, 1.1 и 2 настоящей статьи, совершенные в городе федерального значения Москве или Санкт-Петербурге либо в Московской или Ленинградской области";"Actual"
"57";"Повторное в течение одного года совершение ИГ или ЛБГ административного правонарушения, предусмотренного частями 1 и 2 настоящей статьи";"Actual"
"58";"Осуществление ИГ или ЛБГ трудовой деятельности в РФ без разрешения на работу либо патента, если такие разрешение либо патент требуются в соответствии с федеральным законом";"Actual"
"59";"Нарушение, предусмотренное частью 1 настоящей статьи, совершенное в городе федерального значения Москве или Санкт-Петербурге либо в Московской или Ленинградской области";"Actual"
"60";"Повторное в течение одного года совершение ИГ или ЛБГ административного правонарушения, предусмотренного частью 1 настоящей статьи";"Actual"
"61";"Неуведомление или нарушение установленного порядка и (или) формы уведомления о привлечении к трудовой деятельности в РФ ИГ или ЛБГ либо неуведомление соответствующего органа о расторжении договора с иностранным работником";"Actual"
"85";"Нарушение иностранным гражданином или лицом без гражданства срока обращения за выдачей патента";"Actual"
"62";"Нарушения, предусмотренные частями 1 - 3 настоящей статьи, совершенные в городе федерального значения Москве или Санкт-Петербурге либо в Московской или Ленинградской области";"Actual"
"52";"Самовольное оставление места отбывания административного ареста";"Actual"
"53";"Уклонение ИГ или ЛБГ от исполнения административного наказания в виде административного выдворения за пределы РФ в форме контролируемого самостоятельного выезда из РФ";"Actual"
"63";"Неуведомление или нарушение установленного порядка и (или) формы уведомления об исполнении обязательств по выплате заработной платы ВКС, или о расторжении договора с ВКС, или несвоевременное предоставление сведений о постановке ВКС на учет в налоговом органе";"Actual"
"64";"Нарушения, предусмотренные частями 1 и 2 настоящей статьи, совершенные в городе федерального значения Москве или Санкт-Петербурге либо в Московской или Ленинградской области";"Actual"
"65";"Нарушения, предусмотренные частями 1 и 2 настоящей статьи, совершенные в городе федерального значения Москве или Санкт-Петербурге либо в Московской или Ленинградской области";"Actual"
"66";"Непринятие приглашающей стороной мер по материальному, медицинскому и жилищному обеспечению приглашенного ИГ или ЛБГ в период его пребывания в РФ";"Actual"
"67";"Предоставление приглашающей стороной заведомо ложных сведений о цели пребывания в РФ ИГ или ЛБГ при оформлении документов для въезда в РФ указанного ИГ или ЛБГ";"Actual"
"68";"Самовольное оставление ИГ или ЛБГ, подлежащими административному выдворению за пределы Российской Федерации, депортации или реадмиссии, учреждения, предназначенного для временного размещения лиц, подлежащих административному выдворению за пределы Российской Федерации, депортации или реадмиссии, либо самовольное оставление ими транспортного средства при их доставке в указанные организацию или учреждения либо ином перемещении";"Actual"
"69";"Неосуществление иностранным гражданином или лицом без гражданства, в отношении которых принято решение о прекращении процедуры реадмиссии, добровольного выезда из Российской Федерации в установленный срок";"Actual"
"70";"Неуведомление образовательной организацией о предоставлении ИГ/ЛБГ академического отпуска, о завершении или прекращении обучения ИГ/ЛБГ в образовательной организации либо о самовольном убытии ИГ/ЛБГ из образовательной организации, если такое уведомление требуется в соответствии с федеральным законом, либо нарушение образовательной организацией установленного порядка подачи такого уведомления";"Actual"
"71";"Неуведомление образовательной организацией о прибытии ИГ/ЛБГ в образовательную организацию, о предоставлении ИГ/ЛБГ академического отпуска, о завершении или прекращении обучения в образовательной организации либо о самовольном убытии ИГ/ЛБГ из образовательной организации, если такое уведомление требуется в соответствии с федеральным законом, либо нарушение образовательной организацией установленного порядка подачи такого уведомления";"Actual"
"72";"Неуведомление образовательной организацией о самовольном убытии ИГ/ЛБГ из образовательной организации, если такое уведомление требуется в соответствии с федеральным законом, либо нарушение образовательной организацией установленного порядка подачи такого уведомления";"Actual"
"73";"Проживание гражданина РФ по месту пребывания или по месту жительства в жилом помещении без регистрации либо допущение такого проживания нанимателем или собственником этого жилого помещения свыше установленных законом сроков";"Actual"
"74";"Нарушение, предусмотренное частью 1 настоящей статьи, совершенное в городе федерального значения Москве или Санкт-Петербурге";"Actual"
"75";"Нарушение правил регистрации гражданина РФ по месту пребывания или по месту жительства в жилом помещении, если эти действия не содержат признаков уголовно наказуемого деяния";"Actual"
"76";"Нарушение, предусмотренное частью 1 настоящей статьи, совершенное в городе федерального значения Москве или Санкт-Петербурге";"Actual"
"77";"Нарушение без уважительных причин нанимателем или собственником, предоставившими жилое помещение гражданину РФ, установленных законодательством сроков уведомления органа регистрационного учета о проживании данного гражданина в указанном жилом помещении без регистрации либо представление в орган регистрационного учета заведомо недостоверных сведений о регистрации гражданина РФ, если эти действия не содержат признаков уголовно наказуемого деяния";"Actual"
"78";"Нарушение, предусмотренное частью 3 настоящей статьи, совершенное в городе федерального значения Москве или Санкт-Петербурге";"Actual"
"79";"Нарушение лицом, ответственным за прием и передачу в орган регистрационного учета документов для регистрации и снятия с регистрационного учета гражданина РФ по месту пребывания и по месту жительства в пределах РФ, установленных законодательством сроков представления в орган регистрационного учета документов для регистрации граждан РФ либо представление в орган регистрационного учета заведомо недостоверных документов для регистрации гражданина РФ, если эти действия не содержат признаков уголовно наказуемого деяния";"Actual"
"80";"Проживание по месту пребывания или по месту жительства в жилом помещении гражданина РФ без документа, удостоверяющего личность гражданина (паспорта), или по недействительному документу, удостоверяющему личность гражданина (паспорту)";"Actual"
"81";"Нарушение, предусмотренное частью 1 настоящей статьи, совершенное в городе федерального значения Москве или Санкт-Петербурге";"Actual"
"82";"Нарушение установленного порядка подачи уведомления о наличии у гражданина Российской Федерации гражданства (подданства) иностранного государства либо вида на жительство или иного действительного документа, подтверждающего право на его постоянное проживание в иностранном государстве";"Actual"
"83";"Несоблюдение условий и порядка содержания (пребывания) ИГ или ЛБГ в специальном учреждении, повлекшее нарушение санитарных норм и правил либо требований пожарной безопасности или сохранности имущества специальных учреждений, либо совершение действий, нарушающих права и свободы других лиц или унижающих их человеческое достоинство, или действий, угрожающих собственной жизни и здоровью, а также жизни и здоровью других лиц";"Actual"
"84";"Действия, сопряженные с невыполнением законных требований работников специальных учреждений или должностных лиц территориальных органов федерального органа исполнительной власти, уполномоченного на осуществление функций по контролю и надзору в сфере миграции, либо воспрепятствованием выполнению указанными работниками, должностными лицами или лицами, исполняющими обязанности по охране общественного порядка или пресекающими нарушение общественного порядка, своих служебных обязанностей";"Actual"
