﻿"CODE";"NAME";"ACTUALITYSTATUS"
"10201";"Приходная накладная";"Actual"
"10202";"Расходная накладная";"Actual"
"10203";"Акт об уничтожении бланков";"Actual"
"10204";"Акт об объявлении в розыск";"Actual"
"10205";"Акт об утрате";"Actual"
"10206";"Акт о хищении";"Actual"
"10207";"Акт об изъятии";"Actual"
"10208";"Акт о порче бланков";"Actual"
"10209";"Акт о передаче";"Actual"
"10210";"Распоряжение";"Actual"
"10211";"Указание";"Actual"
