﻿"CODE";"NAME";"ACTUALITYSTATUS"
"901";"уведомление о приеме на работу";"Actual"
"902";"уведомление об увольнении";"Actual"
"905";"сведения о постановке на учет в налоговых органах";"Actual"
"906";"сведения о размере заработной платы";"Actual"
"907";"полис медицинского страхования либо договор с медицинской организацией, на получение медицинской помощи";"Actual"
"908";"уведомление об отпусках";"Actual"
"910";"уведомление об отпусках без сохранения заработной платы";"Actual"
"911";"уведомления от организаций, оказывающих услуги по трудоустройству";"Actual"
"913";"сведения о трудовом договоре или гражданско-правовом договоре";"Actual"
"914";"Сертификат о прохождении государственного тестирования по русскому языку";"Actual"
"915";"Документ об образовании иностранный (с нотариальным переводом)";"Actual"
"916";"Документ об образовании СССР до 1.09.1991 г.";"Actual"
"917";"Документ об образовании РФ после 1.09.1991 г. Названия из №185-ФЗ от 12.11.2012";"Actual"
