﻿"ID";"NAME";"ACTUALITYSTATUS"
"67";"Проставить отметку в свидетельство о рождении";"Actual"
"68";"Внести сведения о ребенке в паспорт родителя";"Actual"
"69";"Внести сведения о ребенке в заграничный паспорт родителя";"Actual"
