"ID";"NAME";"ACTUALITYSTATUS"
"135709";"Вид на жительство ИГ";"Actual"
"135710";"Вид на жительство ЛБГ";"Actual"
"139387";"Вид на жительство ЛБГ (с биометрией)";"Actual"
"139385";"Вид на жительство ЛБГ образца СССР";"Actual"
"136359";"Дипломатический паспорт иностранного гражданина";"Actual"
"103013";"Идентификационная карточка государств-участников СНГ";"Actual"
"136366";"Иной документ, удостоверяющий личность";"Actual"
"103014";"Иностранное свидетельство о рождении";"Actual"
"103012";"Иностранный паспорт";"Actual"
"103022";"Миграционная карта";"Actual"
"103009";"Национальный заграничный паспорт";"Actual"
"103020";"Национальный паспорт гражданина государств-участников СНГ";"Actual"
"103021";"Паспорт моряка";"Actual"
"102969";"Паспорт негражданина";"Actual"
"139372";"Патент ИГ (ЛБГ)";"Actual"
"139373";"Разрешение на временное проживание ИГ";"Actual"
"135717";"Разрешение на временное проживание ЛБГ (бланк)";"Actual"
"139388";"Разрешение на временное проживание ЛБГ (штамп)";"Actual"
"139375";"Разрешение на привлечение иностранных работников";"Actual"
"139374";"Разрешение на работу ИГ (ЛБГ) безвизовое";"Actual"
"139380";"Разрешение на работу ИГ (ЛБГ) безвизовое для ВКС и Сколково";"Actual"
"139377";"Разрешение на работу ИГ (ЛБГ) визовое";"Actual"
"139381";"Разрешение на работу ИГ (ЛБГ) визовое для ВКС и Сколково";"Actual"
"102977";"Свидетельство о предоставлении временного убежища на территории Российской Федерации";"Actual"
"102972";"Свидетельство о предоставлении иностранному гражданину или лицу без гражданства Российской Федерацией политического убежища";"Actual"
"135975";"Свидетельство о рассмотрении ходатайства вынужденного переселенца";"Actual"
"135976";"Свидетельство о рассмотрении ходатайства о признании беженцем по существу";"Actual"
"103010";"Служебный паспорт";"Actual"
"103000";"Удостоверение беженца в Российской Федерации";"Actual"
"139391";"Удостоверение беженца в Российской Федерации старого образца";"Actual"
"135974";"Удостоверение вынужденного переселенца";"Actual"
"139395";"Удостоверение вынужденного переселенца старого образца";"Actual"
"102997";"Удостоверение лица без гражданства";"Actual"
"102999";"Удостоверение личности гражданина государств-участников СНГ";"Actual"
"139384";"Удостоверение личности гражданина Республики Казахстан";"Actual"
"103007";"Загранпаспорт гражданина Российской Федерации";"Actual"
"136336";"Загранпаспорт нового поколения (с биометрией)";"Actual"
"139370";"Загранпаспорт, выданный за пределами Российской Федерации";"Actual"
