﻿"CODE";"NAME";"ACTUALITYSTATUS"
"1128";"Нарушено условие о том, что привлекать высококвалифицированных специалистов вправе работодатели или заказчики работ (услуг), являющиеся: российскими коммерческими организациями, российскими научными организациями, образовательными учреждениями профессионального образования (за исключением учреждений профессионального религиозного образования (духовных образовательных учреждений), учреждениями здравоохранения, а также иными организациями, осуществляющими научную, научно-техническую и инновационную деятельность";"Actual"
"1129";"В течение двух лет до дня подачи заявления о привлечении высококвалифицированных специалистов работодатель или заказчик работ(услуг) подвергался административному наказанию за незаконное привлечение к трудовой деятельности в Российской Федерации иностранных граждан или лиц без гражданства, а также не имеет на момент подачи такого заявления неисполненные постановления о назначении административного наказания за совершение указанных административных правонарушений";"Actual"
"1140";"п.12 ст.32 Федерального закона от 25 июля 2002 г. № 115-ФЗ ""О правовом положении иностранных граждан в Российской Федерации""";"Actual"
"1141";"пп.2 п.9.7 ст.18 Федерального закона от 25 июля 2002 г. № 115-ФЗ ""О правовом положении иностранных граждан в Российской Федерации""";"Actual"
"1142";"пп.1 п.9.7 ст.18 Федерального закона от 25 июля 2002 г. № 115-ФЗ ""О правовом положении иностранных граждан в Российской Федерации""";"Actual"
"1143";"пп.2 п.8 ст.13.5 Федерального закона от 25 июля 2002 г. № 115-ФЗ ""О правовом положении иностранных граждан в Российской Федерации""";"Actual"
"1144";"пп.3 п.8 ст.13.5 Федерального закона от 25 июля 2002 г. № 115-ФЗ ""О правовом положении иностранных граждан в Российской Федерации""";"Actual"
"1112";"пп.1 п.9 ст.18 Федерального закона от 25 июля 2002 г. № 115-ФЗ ""О правовом положении иностранных граждан в Российской Федерации""";"Actual"
"1113";"пп.2 п.9 ст.18 Федерального закона от 25 июля 2002 г. № 115-ФЗ ""О правовом положении иностранных граждан в Российской Федерации""";"Actual"
"1114";"пп.3 п.9 ст.18 Федерального закона от 25 июля 2002 г. № 115-ФЗ ""О правовом положении иностранных граждан в Российской Федерации""";"Actual"
"1115";"пп.4 п.9 ст.18 Федерального закона от 25 июля 2002 г. № 115-ФЗ ""О правовом положении иностранных граждан в Российской Федерации""";"Actual"
"1116";"пп.5 п.9 ст.18 Федерального закона от 25 июля 2002 г. № 115-ФЗ ""О правовом положении иностранных граждан в Российской Федерации""";"Actual"
"1117";"пп.6 п.9 ст.18 Федерального закона от 25 июля 2002 г. № 115-ФЗ ""О правовом положении иностранных граждан в Российской Федерации""";"Actual"
"1118";"пп.7 п.9 ст.18 Федерального закона от 25 июля 2002 г. № 115-ФЗ ""О правовом положении иностранных граждан в Российской Федерации""";"Actual"
"1119";"пп.8 п.9 ст.18 Федерального закона от 25 июля 2002 г. № 115-ФЗ ""О правовом положении иностранных граждан в Российской Федерации""";"Actual"
"1120";"пп.9 п.9 ст.18 Федерального закона от 25 июля 2002 г. № 115-ФЗ ""О правовом положении иностранных граждан в Российской Федерации""";"Actual"
"1121";"пп.10 п.9 ст.18 Федерального закона от 25 июля 2002 г. № 115-ФЗ ""О правовом положении иностранных граждан в Российской Федерации""";"Actual"
"1122";"пп.11 п.9 ст.18 Федерального закона от 25 июля 2002 г. № 115-ФЗ ""О правовом положении иностранных граждан в Российской Федерации""";"Actual"
"1123";"пп.12 п.9 ст.18 Федерального закона от 25 июля 2002 г. № 115-ФЗ ""О правовом положении иностранных граждан в Российской Федерации""";"Actual"
"1124";"пп.13 п.9 ст.18 Федерального закона от 25 июля 2002 г. № 115-ФЗ ""О правовом положении иностранных граждан в Российской Федерации""";"Actual"
"1125";"пп.14 п.9 ст.18 Федерального закона от 25 июля 2002 г. № 115-ФЗ ""О правовом положении иностранных граждан в Российской Федерации""";"Actual"
"1126";"п.9.1 ст.18 Федерального закона от 25 июля 2002 г. № 115-ФЗ ""О правовом положении иностранных граждан в Российской Федерации""";"Actual"
"1127";"п.9.2 ст.18 Федерального закона от 25 июля 2002 г. № 115-ФЗ ""О правовом положении иностранных граждан в Российской Федерации""";"Actual"
"1147";"п.9.1-1 ст.18 Федерального закона от 25 июля 2002 г. № 115-ФЗ ""О правовом положении иностранных граждан в Российской Федерации""";"Actual"
"1148";"пп.15 п.9 ст.18 Федерального закона от 25 июля 2002 г. № 115-ФЗ ""О правовом положении иностранных граждан в Российской Федерации""";"Actual"
"1149";"п.9.6 ст.18 Федерального закона от 25 июля 2002 г. № 115-ФЗ ""О правовом положении иностранных граждан в Российской Федерации""";"Actual"
