﻿"ID";"NAME";"ACTUALITYSTATUS"
"135735";"ПРИЕМ В ГР-ВО РФ (СТ. 41.3 С ПРИМ. П. А, Ч. 1 СТ. 41.1) 62-ФЗ";"Actual"
"135736";"ПРИЕМ В ГР-ВО РФ (СТ. 41.3 С ПРИМ. П. Б, Ч. 1 СТ. 41.1) 62-ФЗ";"Actual"
"135737";"ПРИЕМ В ГР-ВО РФ (СТ. 41.3 С ПРИМ. П. В, Ч. 1 СТ. 41.1) 62-ФЗ";"Actual"
"135738";"ПРИЕМ В ГР-ВО РФ (СТ. 41.3 С ПРИМ. П. Г, Ч. 1 СТ. 41.1) 62-ФЗ";"Actual"
"135739";"ПРИЕМ В ГР-ВО РФ (СТ. 41.3 С ПРИМ. П. Д, Ч. 1 СТ. 41.1) 62-ФЗ";"Actual"
