﻿"ID";"NAME";"ACTUALITYSTATUS"
"14";"Возвратить заявление";"Actual"
"36";"Возвратить заявление";"Actual"
"92";"По личному заявлению";"Actual"
"93";"В связи с установлением в период рассмотрения заявления отсутствия оснований приема в российское гражданство";"Actual"
"94";"В связи со смертью";"Actual"
"95";"По иным причинам";"Actual"
"96";"Заявление согласовано";"Actual"
"97";"Заявление не согласовано";"Actual"
"98";"Заявление возвращено в орган МИД России для уточнения данных";"Actual"
"48";"Инвалиды";"Actual"
"89";"Ребенок";"Actual"
"90";"Недееспособное лицо";"Actual"
"64";"Обращался";"Actual"
"65";"Не обращался";"Actual"
"66";"Выдать паспорт гражданина Российской Федерации";"Actual"
"67";"Проставить отметку в свидетельство о рождении";"Actual"
"68";"Внести сведения о ребенке в паспорт родителя";"Actual"
"69";"Внести сведения о ребенке в заграничный паспорт родителя";"Actual"
"70";"Изъять паспорт гражданина Российской Федерации";"Actual"
"71";"Изъять вкладыш в свидетельство о рождении";"Actual"
"72";"Аннулировать отметку в свидетельство о рождении";"Actual"
"73";"Аннулировать запись о ребенке в паспорте родителя";"Actual"
"74";"Аннулировать запись о ребенке в заграничном паспорте родителя";"Actual"
"75";"Выдать вид на жительство";"Actual"
"76";"Считать гражданином Российской Федерации";"Actual"
"77";"Гражданином Российской Федерации не является";"Actual"
"78";"Заявление отклонено";"Actual"
"79";"Выход из гражданства не допущен";"Actual"
"80";"Территориальные органы ФМС России";"Actual"
"81";"Консульские заграничные учреждения";"Actual"
"82";"Органы прокуратуры";"Actual"
"83";"Учреждения исполнения наказаний";"Actual"
"84";"Иные органы государственной власти";"Actual"
"85";"Прочие организации";"Actual"
"86";"Первичная выдача УЛ";"Actual"
"87";"Повторная выдача УЛ по причине утраты УЛ";"Actual"
"88";"Повторная выдача УЛ по причине порчи УЛ";"Actual"
"49";"Студент";"Actual"
"61";"Обращение лица";"Actual"
"62";"Письмо из государственного органа";"Actual"
"63";"Рапорт уполномоченного органа";"Actual"
"33";"Подтверждено наличие гражданства РФ";"Actual"
"34";"Отсутствует гражданство РФ";"Actual"
"35";"Не представляется возможным определить";"Actual"
"11";"Положительное решение";"Actual"
"12";"Отрицательное решение";"Actual"
"13";"Уточнение данных";"Actual"
"21";"Положительное";"Actual"
"22";"Отрицательное";"Actual"
"31";"Удовлетворить просьбу";"Actual"
"32";"Отклонить заявление";"Actual"
"41";"Рабочие и служащие";"Actual"
"42";"Инженерно-технические работники";"Actual"
"43";"Работники образования и здравоохранения";"Actual"
"44";"Работники на предприятиях частной формы собственности";"Actual"
"45";"Иные работающие";"Actual"
"46";"Пенсионеры";"Actual"
"47";"Иждивенцы";"Actual"
"51";"Доход по основному месту работы";"Actual"
"52";"Доход от иной деятельности";"Actual"
"53";"Доход от вкладов в банках и иных кредитных организациях";"Actual"
"54";"Доход от ценных бумаг и долей участия в коммерческих организациях";"Actual"
"55";"Пенсии, стипендии и иные социальные выплаты или доходы";"Actual"
"99";"Признан носителем русского языка";"Actual"
"100";"Не признан носителем русского языка";"Actual"
"101";"Заявление снято с рассмотрения";"Actual"
"102";"Продлить согласование";"Actual"
