﻿"CODE";"NAME";"ACTUALITYSTATUS"
"2098";"Заявление о регистрации по месту пребывания по форме №1";"Actual"
"2099";"АЛП из медицинской организации";"Actual"
"2100";"АЛП";"Actual"
"2101";"Направление переселенца";"Actual"
"2102";"Заявление о регистрации по месту жительства по форме №6";"Actual"
"2103";"Анкета по форме № 5";"Actual"
"2104";"Заявление о снятии с регистрационного учета по месту жительства по форме №6";"Actual"
"2105";"АЛУ из медицинской организации";"Actual"
"2106";"АЛУ";"Actual"
"2107";"Заявление гражданина о снятии с регистрационного учета по месту жительства произвольной формы";"Actual"
"2108";"Заявление гражданина о снятии с регистрационного учета по месту пребывания произвольной формы";"Actual"
"2109";"Автоматическое снятие";"Actual"
"2148";"АЛП из учреждения уголовно-исполнительной системы";"Actual"
"2150";"АЛУ из учреждения уголовно-исполнительной системы";"Actual"
"2153";"Архивные сведения регистрационного учета по месту жительства";"Actual"
"2154";"Архивные сведения регистрационного учета по месту пребывания";"Actual"
