﻿"ID";"NAME";"ACTUALITYSTATUS"
"135536";"19210806000010000110";"Historical"
"135537";"19210807081010000110";"Historical"
"135538";"19210807100010000110";"Historical"
"135539";"19211302991016000130";"Actual"
"135540";"19211402014016000410";"Actual"
"135541";"19211402014016000440";"Actual"
"135542";"19211623011016000140";"Actual"
"135564";"19210806000010005110";"Actual"
"135565";"19210806000010006110";"Actual"
"135566";"19210806000010007110";"Actual"
"135567";"19210806000010008110";"Actual"
"135568";"19210806000010009110";"Actual"
"135569";"19210806000010010110";"Actual"
"135570";"19210806000010011110";"Actual"
"135571";"19210806000010012110";"Actual"
"135572";"19210806000010013110";"Actual"
"135573";"19210806000010014110";"Actual"
"135574";"19210806000010015110";"Actual"
"135575";"19210806000010016110";"Actual"
"135576";"19210806000010017110";"Actual"
"135577";"19210806000010018110";"Actual"
"135578";"19210807100010034110";"Actual"
"135562";"19210806000010003110";"Actual"
"135563";"19210806000010004110";"Actual"
"135596";"19210806000018003110";"Actual"
"135597";"19210806000018004110";"Actual"
"135598";"19210806000018005110";"Actual"
"135599";"19210806000018006110";"Actual"
"135600";"19210806000018007110";"Actual"
"135601";"19210807100018035110";"Actual"
"135602";"19210807100018034110";"Actual"
"135603";"19210807081018300110";"Actual"
"135515";"19211102012010000120";"Historical"
"135516";"19211303010010000130";"Historical"
"135517";"19211402014010000410";"Historical"
"135518";"19211402014010000440";"Historical"
"135519";"19211623010010000140";"Historical"
"135520";"19211690010010000140";"Historical"
"135521";"19211690020020000140";"Historical"
"135522";"19211690030030000140";"Historical"
"135523";"19211690040040000140";"Historical"
"135524";"19211690050050000140";"Historical"
"135579";"19210807100010035110";"Actual"
"135586";"19211640000016020140";"Actual"
"135587";"19211640000016021140";"Actual"
"135588";"19211640000016022140";"Actual"
"135589";"19211640000016023140";"Actual"
"135590";"19211640000016024140";"Actual"
"135591";"19211640000016025140";"Actual"
"135592";"19211640000016026140";"Actual"
"135593";"19211640000016027140";"Actual"
"135594";"19211640000016028140";"Actual"
"135580";"19210807081010300110";"Actual"
"135581";"19210807081010400110";"Actual"
"135582";"19210807081010500110";"Actual"
"135583";"19210807081010700110";"Actual"
"135584";"19210807081010800110";"Actual"
"135595";"19211607000016000140";"Actual"
"135543";"19211623012016000140";"Actual"
"135544";"19211633010016000140";"Actual"
"135545";"19211643000016000140";"Actual"
"135546";"19211690010016000140";"Actual"
"135547";"19211690020026000140";"Actual"
"135548";"19211690030036000140";"Historical"
"135549";"19211690040046000140";"Actual"
"135550";"19211690050056000140";"Actual"
"135551";"19211705010016000180";"Actual"
"135552";"19201060800014800640";"Actual"
"135604";"19211640000016029140";"Actual"
"135605";"19211640000016030140";"Actual"
"135606";"19211640000016031140";"Actual"
"135607";"19211640000016032140";"Actual"
"135608";"19211640000016033140";"Actual"
"135609";"19211640000016034140";"Actual"
"135610";"19211640000016035140";"Actual"
"135611";"19211640000016036140";"Actual"
"135612";"Отсутствует";"Actual"
