﻿"CODE";"NAME";"ACTUALITYSTATUS"
"134581";"Приобретение гражданства РФ";"Actual"
"134584";"Изменение установочных данных";"Actual"
"134585";"Изменение пола";"Actual"
"135990";"Обмен паспорта СССР";"Actual"
