﻿"CODE";"NAME";"ACTUALITYSTATUS"
"1101";"Утрата, хищение";"Actual"
"1102";"Порча";"Actual"
"1103";"Смена реквизитов организации - работодателя";"Actual"
"1104";"Смена установочных данных ИГ (ЛБГ)";"Actual"
"1145";"Смена профессии (должности)";"Actual"
