﻿"ID";"NAME";"ACTUALITYSTATUS"
"135974";"Удостоверение вынужденного переселенца";"Actual"
"135975";"Свидетельство о рассмотрении ходатайства вынужденного переселенца";"Actual"
"135976";"Свидетельство о рассмотрении ходатайства о признании беженцем по существу";"Actual"
"135709";"Вид на жительство ИГ";"Actual"
"135710";"Вид на жительство ЛБГ";"Actual"
"136359";"Дипломатический паспорт иностранного гражданина";"Actual"
"135717";"Разрешение на временное проживание ЛБГ (бланк)";"Actual"
"102969";"Паспорт негражданина";"Actual"
"102977";"Свидетельство о предоставлении временного убежища на территории Российской Федерации";"Actual"
"102999";"Удостоверение личности гражданина государств-участников СНГ";"Actual"
"102957";"Справка о рассмотрении заявления о предоставлении временного убежища на территории РФ";"Actual"
"139370";"Загранпаспорт, выданный за пределами Российской Федерации";"Actual"
"102982";"Паспорт гражданина СССР";"Actual"
"102983";"Свидетельство о возвращении";"Actual"
"102997";"Удостоверение лица без гражданства";"Actual"
"136336";"Загранпаспорт нового поколения (с биометрией)";"Actual"
"103009";"Национальный заграничный паспорт";"Actual"
"136366";"Иной документ, удостоверяющий личность";"Actual"
"103000";"Удостоверение беженца в Российской Федерации";"Actual"
"103007";"Загранпаспорт гражданина Российской Федерации";"Actual"
"103008";"Паспорт гражданина Российской Федерации";"Actual"
"103010";"Служебный паспорт";"Actual"
"103012";"Иностранный паспорт";"Actual"
"103021";"Паспорт моряка";"Actual"
"102959";"Справка об освобождении из места лишения свободы";"Actual"
"139384";"Удостоверение личности гражданина Республики Казахстан";"Actual"
"139387";"Вид на жительство ЛБГ (с биометрией)";"Actual"
"139388";"Разрешение на временное проживание ЛБГ (штамп)";"Actual"
