﻿"CODE";"NAME";"ACTUALITYSTATUS"
"901";"уведомление о приеме на работу";"Actual"
"902";"уведомление об увольнении";"Actual"
"903";"ходатайство работодателя";"Actual"
"904";"уведомление об исполнении обязательств по выплате заработной платы";"Actual"
"908";"уведомление об отпусках";"Actual"
