﻿"ID";"NAME";"ACTUALITYSTATUS"
"1";"Административное выдворение";"Actual"
"2";"Депортация";"Actual"
"3";"Нежелательность временного пребывания";"Actual"
"4";"Нежелательность постоянного проживания";"Actual"
"5";"Привлечение к административной ответственности 2 и более раза в течение 3-х лет";"Actual"
"6";"Прекращено по основаниям ст. 24.5 КоАП РФ";"Actual"
"7";"Реадмиссия";"Actual"
"2005151";"Неразрешение въезда";"Actual"
