﻿"CODE";"NAME";"ACTUALITYSTATUS"
"3055";"Рапорт сотрудника";"Actual"
"3056";"Уголовное дело";"Actual"
"3057";"Свидетельство о смерти";"Actual"
"3058";"Сообщение о смерти";"Actual"
"3059";"Сообщение о выходе из гражданства Российской Федерации";"Actual"
"3060";"Служебное расследование";"Actual"
"3062";"Заявление владельца";"Actual"
