﻿"ID";"NAME";"ACTUALITYSTATUS"
"102969";"Паспорт негражданина";"Actual"
"102982";"Паспорт гражданина СССР";"Actual"
"102983";"Свидетельство о возвращении";"Actual"
"102997";"Удостоверение лица без гражданства";"Actual"
"102999";"Удостоверение личности гражданина государств-участников СНГ";"Actual"
"103009";"Национальный заграничный паспорт";"Actual"
"103010";"Служебный паспорт";"Actual"
"103012";"Иностранный паспорт";"Actual"
"103014";"Иностранное свидетельство о рождении";"Actual"
"103020";"Национальный паспорт гражданина государств-участников СНГ";"Actual"
"103021";"Паспорт моряка";"Actual"
"135709";"Вид на жительство ИГ";"Actual"
"135710";"Вид на жительство ЛБГ";"Actual"
"135717";"Разрешение на временное проживание ЛБГ (бланк)";"Actual"
"135974";"Удостоверение вынужденного переселенца";"Actual"
"135975";"Свидетельство о рассмотрении ходатайства вынужденного переселенца";"Actual"
"136359";"Дипломатический паспорт иностранного гражданина";"Actual"
"139387";"Вид на жительство ЛБГ (с биометрией)";"Actual"
