﻿"CODE";"NAME";"ACTUALITYSTATUS"
"1";"Женат (замужем)";"Actual"
"12801";"Холост (не замужем)";"Actual"
"12802";"Разведен (разведена)";"Actual"
"2";"Никогда не был женат (замужем)";"Actual"
"2035";"Состоит в зарегистрированном браке";"Actual"
"2036";"Никогда не состоял (не состояла в браке)";"Actual"
"2039";"Состоит в незарегистрированном браке";"Actual"
"2040";"Разошелся (разошлась)";"Actual"
"3";"Разведен(а)";"Actual"
"4";"Вдовец(вдова)";"Actual"
