﻿"ID";"NAME";"ACTUALITYSTATUS"
"102969";"Паспорт негражданина";"Actual"
"102974";"Свидетельство о рождении";"Actual"
"102982";"Паспорт гражданина СССР";"Actual"
"102997";"Удостоверение лица без гражданства";"Actual"
"103009";"Национальный заграничный паспорт";"Actual"
"103012";"Иностранный паспорт";"Actual"
"103014";"Иностранное свидетельство о рождении";"Actual"
"136366";"Иной документ, удостоверяющий личность";"Actual"
