﻿"ID";"NAME";"ACTUALITYSTATUS"
"100051";"АКАДЕМИК РОССИЙСКОЙ АКАДЕМИИ НАУК";"Actual"
"100052";"АКАДЕМИК МЕЖДУНАРОДНОЙ АКАДЕМИИ НАУК";"Actual"
"100053";"АКАДЕМИК ОТРАСЛЕВОЙ АКАДЕМИИ НАУК";"Actual"
"100054";"ЧЛЕН-КОРРЕСПОНДЕНТ РОССИЙСКОЙ АКАДЕМИИ НАУК";"Actual"
"100055";"ЧЛЕН-КОРРЕСПОНДЕНТ МЕЖДУНАРОДНОЙ АКАДЕМИИ НАУК";"Actual"
"100056";"ЧЛЕН-КОРРЕСПОНДЕНТ ОТРАСЛЕВОЙ АКАДЕМИИ НАУК";"Actual"
"100057";"ПРОФЕССОР";"Actual"
"100058";"ДОЦЕНТ";"Actual"
"100059";"СТАРШИЙ НАУЧНЫЙ СОТРУДНИК";"Actual"
"100060";"МЛАДШИЙ НАУЧНЫЙ СОТРУДНИК";"Actual"
"100061";"АССИСТЕНТ";"Actual"
"100062";"ЧЛЕН ЗАРУБЕЖНОЙ АКАДЕМИИ НАУК";"Actual"
