﻿"CODE";"NAME";"ACTUALITYSTATUS"
"701";"другая причина";"Actual"
"702";"окончание действия разрешения на работу";"Actual"
"703";"пп. а п.6 ст.81 ТК РФ (увольнение по статье за прогулы без уважительной причины)";"Actual"
"704";"п.1 ст.81 ТК РФ (Ликвидация предприятия)";"Actual"
"705";"п.2 ст.77 ТК РФ (Окончание срока действия трудового договора)";"Actual"
"706";"п.2 ст.81 ТК РФ (Реорганизация юр. лица)";"Actual"
"707";"п.3 ст.77 (ст.80) ТК РФ (по собственному желанию)";"Actual"
"708";"п.5 ст.81 ТК РФ (Нарушение трудовой дисциплины)";"Actual"
"709";"п.6 ст.83 ТК РФ (смерть сотрудника)";"Actual"
