﻿"ID";"NAME";"ACTUALITYSTATUS"
"134447";"Гражданин РФ, ЛБГ, ИГ";"Actual"
"134448";"Юридическое лицо";"Actual"
"134449";"Орган местного самоуправления";"Actual"
"134445";"Организация";"Actual"
"134446";"Физическое лицо";"Actual"
