"ID";"NAME";"CODE";"END_DATE"
"120640";"АБАГАЙТУЙ (АВТО)";"9735042";
"120658";"АБАКАН";"9737010";
"120659";"АБАКАН (АВИА)";"9737011";
"119966";"АВИЛО-УСПЕНКА";"9725020";
"112833";"АГНЕВО (МОРЕ)";"9749024";
"119417";"АДЛЕР";"9730030";
"119418";"АДЛЕР (АВТО)";"9730032";
"119419";"АДЛЕР (Ж.Д.)";"9730033";
"119967";"АЗОВ";"9725030";
"119968";"АЗОВ (МОРЕ)";"9725034";
"120752";"АЙНЕК-ГОЛ (АВТО)";"9739042";
"113038";"АКСАРАЙСКИЙ (Ж.Д.)";"9759033";
"112834";"АЛЕКСАНДРОВСК";"9749040";
"112835";"АЛЕКСАНДРОВСК (МОРЕ)";"9749044";
"113220";"АЛМА-АТА";"9786040";
"113221";"АЛМА-АТА (АВИА)";"9786041";
"120753";"АЛТАН (АВТО)";"9739082";
"119803";"АМУРЗЕТ";"9741040";
"120771";"АМУРЗЕТ (АВТО)";"9741042";
"120772";"АМУРЗЕТ (РЕЧ.)";"9741045";
"120800";"АНАДЫРЬ";"9753040";
"112869";"АНАДЫРЬ (АВИА)";"9753041";
"112870";"АНАДЫРЬ (МОРЕ)";"9753044";
"120056";"АНАПА";"9728040";
"120057";"АНАПА (АВИА)";"9728041";
"120058";"АНАПА (МОРЕ)";"9728044";
"128649";"АРМЯНСК (Ж.Д.)";"9791004";
"119864";"АРХАНГЕЛЬСК";"9704030";
"119865";"АРХАНГЕЛЬСК (АВИА)";"9704031";
"119866";"АРХАНГЕЛЬСК (МОРЕ)";"9704034";
"120754";"АСПАЙТЫ (АВТО)";"9739112";
"113208";"АСТАРА (АВТО)";"9783042";
"113039";"АСТРАХАНЬ";"9759040";
"113040";"АСТРАХАНЬ (АВИА)";"9759041";
"113041";"АСТРАХАНЬ (МОРЕ)";"9759044";
"120816";"АСТРАХАНЬ (РЕЧ.)";"9759045";
"113229";"АШГАБАТ";"9789050";
"120510";"БАГРАТИОНОВСК";"9718060";
"120511";"БАГРАТИОНОВСК (АВТО)";"9718062";
"120512";"БАГРАТИОНОВСК (Ж.Д.)";"9718063";
"120513";"БАГРАТИОНОВСК (ПЕШ.)";"9718066";
"119533";"БАЗА ЛИТКЕ";"9709060";
"119881";"БАЗА ЛИТКЕ (МОРЕ)";"9709064";
"113209";"БАКУ";"9783060";
"113210";"БАКУ (АВИА)";"9783061";
"120910";"БАКУ (МОРЕ)";"9783064";
"120514";"БАЛТИЙСК (МОРЕ)";"9718094";
"113021";"БАРНАУЛ (АВИА)";"9758061";
"120804";"БАСТАН (АВТО)";"9754092";
"113212";"БАТУМИ";"9784060";
"120911";"БАТУМИ (АВТО)";"9784062";
"113213";"БАТУМИ (Ж.Д)";"9784063";
"113214";"БАТУМИ (МОРЕ)";"9784064";
"113222";"БАХТЫ (АВТО)";"9786112";
"113047";"БАЧЕВСК";"9770390";
"120818";"БАЧЕВСК (АВТО)";"9770392";
"119423";"БЕЖТА  (АВТО)";"9731052";
"119928";"БЕЗЫМЕНО (АВТО)";"9724052";
"119793";"БЕЛАЯ БЕРЕЗА (АВТО)";"9722052";
"119929";"БЕЛГОРОД";"9724070";
"119930";"БЕЛГОРОД (АВИА)";"9724071";
"119931";"БЕЛГОРОД (АВТО)";"9724072";
"119932";"БЕЛГОРОД (Ж.Д.)";"9724073";
"113048";"БЕЛГОРОД-ДНЕСТРОВСКИЙ";"9770450";
"119819";"БЕЛИДЖИ";"9731070";
"120620";"БЕЛИДЖИ (Ж.Д.)";"9731073";
"113049";"БЕРЕГОВО";"9770490";
"113050";"БЕРЕГОВО (АВТО)";"9770492";
"120861";"БЕРЕСТОВИЦА (Ж.Д.)";"9780083";
"112836";"БЕРИНГОВСКИЙ";"9749090";
"112837";"БЕРИНГОВСКИЙ (МОРЕ)";"9749094";
"120395";"БЕСОВЕЦ";"9712090";
"120396";"БЕСОВЕЦ (АВИА)";"9712091";
"120917";"БИШКЕК";"9787090";
"113224";"БИШКЕК (АВИА)";"9787091";
"120785";"БЛАГОВЕЩЕНСК";"9742100";
"119807";"БЛАГОВЕЩЕНСК (АВИА)";"9742101";
"120786";"БЛАГОВЕЩЕНСК (АВТО)";"9742102";
"120787";"БЛАГОВЕЩЕНСК (МОРЕ)";"9742104";
"120788";"БЛАГОВЕЩЕНСК (РЕЧ.)";"9742105";
"113052";"БОЛГРАД";"9770690";
"119845";"БОРИСОГЛЕБСК";"9703070";
"119846";"БОРИСОГЛЕБСК (АВТО)";"9703072";
"119847";"БОРИСОГЛЕБСК (Ж.Д.)";"9703073";
"119848";"БОРИСОГЛЕБСКАЯ ГЭС (АВТО)";"9703082";
"120820";"БОРИСПОЛЬ";"9770750";
"113053";"БОРИСПОЛЬ (АВИА)";"9770751";
"120755";"БОЦИЙ (АВТО)";"9739152";
"112838";"БОШНЯКОВО (МОРЕ)";"9749124";
"120660";"БРАТСК";"9737100";
"120661";"БРАТСК (АВИА)";"9737101";
"120862";"БРЕСТ";"9780100";
"119511";"БРЕСТ (АВТО)";"9780102";
"120863";"БРЕСТ (Ж.Д.)";"9780103";
"113193";"БРЕСТ-МОСТ (АВТО)";"9780112";
"120475";"БРУНИШЕВО";"9713080";
"119892";"БРУСНИЧНОЕ";"9710080";
"119893";"БРУСНИЧНОЕ (АВТО)";"9710082";
"119894";"БРУСНИЧНОЕ (МОРЕ)";"9710084";
"120543";"БРЯНСК";"9722080";
"120544";"БРЯНСК (АВИА)";"9722081";
"120545";"БРЯНСК (Ж.Д.)";"9722083";
"119969";"БУГАЕВКА";"9725110";
"119970";"БУГАЕВКА (АВТО)";"9725112";
"112997";"БУГРИСТОЕ (АВТО)";"9757062";
"120505";"БУРАЧКИ";"9715090";
"120506";"БУРАЧКИ (АВТО)";"9715092";
"112788";"БУХТА СВЕТЛАЯ";"9745110";
"112789";"БУХТА СВЕТЛАЯ (МОРЕ)";"9745114";
"119753";"БЫКОВО (АВИА)";"9701041";
"113057";"В.ПИСАРЕВКА";"9771320";
"120822";"В.ПИСАРЕВКА (АВТО)";"9771322";
"113054";"ВАДУЛ-СИРЕТ";"9771070";
"120821";"ВАДУЛ-СИРЕТ (Ж.Д.)";"9771073";
"120457";"ВАЖЕНВАРА (АВТО)";"9712312";
"119933";"ВАЛУЙКИ";"9724130";
"119934";"ВАЛУЙКИ (АВТО)";"9724132";
"119935";"ВАЛУЙКИ (Ж.Д.)";"9724133";
"112821";"ВАНИНО";"9748130";
"112822";"ВАНИНО (МОРЕ)";"9748134";
"119882";"ВАСИЛЕОСТРОВСКИЙ";"9709130";
"119883";"ВАСИЛЕОСТРОВСКИЙ (МОРЕ)";"9709134";
"119534";"ВАСИЛЕОСТРОВСКИЙ ГРУЗ.РАЙОН (РЕЧ.)";"9709135";
"120924";"ВЕНТСПИЛС (МОРЕ)";"9791144";
"119936";"ВЕРГЕЛЕВКА (АВТО)";"9724142";
"119937";"ВЕРИГОВКА (АВТО)";"9724152";
"113042";"ВЕРХНИЙ БАСКУНЧАК (АВТО)";"9759152";
"113043";"ВЕРХНИЙ БАСКУНЧАК (Ж.Д.)";"9759153";
"120633";"ВЕРХНИЙ ЛАРС";"9732130";
"120634";"ВЕРХНИЙ ЛАРС (АВТО)";"9732132";
"120641";"ВЕРХНИЙ УЛЬХУН (АВТО)";"9735132";
"119971";"ВЕСЕЛО-ВОЗНЕСЕНКА";"9725130";
"119972";"ВЕСЕЛО-ВОЗНЕСЕНКА (АВТО)";"9725132";
"112883";"ВЕСЕЛОЯРСК (АВТО)";"9754162";
"113055";"ВИЛОК";"9771150";
"113056";"ВИЛОК (АВТО)";"9771152";
"120925";"ВИЛЬНЮС (АВИА)";"9792151";
"120546";"ВИТЕМЛЯ";"9722140";
"119794";"ВИТЕМЛЯ (Ж.Д.)";"9722143";
"112839";"ВИТЯЗЬ (МОРЕ)";"9749154";
"120810";"ВИШНЕВКА (АВТО)";"9755132";
"112794";"ВЛАДИВОСТОК (АВИА)";"9746151";
"112795";"ВЛАДИВОСТОК (Ж.Д.)";"9746153";
"112796";"ВЛАДИВОСТОК (МОРЕ)";"9746154";
"112797";"ВЛАДИВОСТОК РЫБНЫЙ ПОРТ (МОРЕ)";"9746155";
"112798";"ВЛАДИВОСТОК ТОРГОВЫЙ ПОРТ (МОРЕ)";"9746156";
"120635";"ВЛАДИКАВКАЗ";"9732170";
"120636";"ВЛАДИКАВКАЗ (АВИА)";"9732171";
"120637";"ВЛАДИКАВКАЗ (РЕЧ.)";"9732175";
"119754";"ВНУКОВО (АВИА)";"9701061";
"120458";"ВОЙНИЦА (АВТО)";"9712332";
"112967";"ВОЛГОГРАД (АВИА)";"9756151";
"119973";"ВОЛОШИНО";"9725160";
"119974";"ВОЛОШИНО (АВТО)";"9725162";
"119938";"ВОРОНЕЖ";"9724160";
"119939";"ВОРОНЕЖ (АВИА)";"9724161";
"112998";"ВОСКРЕСЕНСКОЕ (АВТО)";"9757112";
"112968";"ВОСТОЧНЫЙ (АВТО)";"9756172";
"120515";"ВОСТОЧНЫЙ (КАЛИНИНГРАД)";"9718150";
"120516";"ВОСТОЧНЫЙ (КАЛИНИНГРАД)(МОРЕ)";"9718154";
"112790";"ВОСТОЧНЫЙ ПОРТ (НАХОДКА)(МОРЕ)";"9745154";
"119895";"ВЫБОРГ";"9710150";
"119896";"ВЫБОРГ (АВТО)";"9710152";
"119897";"ВЫБОРГ (Ж.Д.)";"9710153";
"119898";"ВЫБОРГ (МОРЕ)";"9710154";
"119536";"ВЫСОКО-ЛИТОВСК (Ж.Д.)";"9710163";
"119899";"ВЫСОЦК (МОРЕ)";"9710184";
"113058";"ВЫСТУПОВИЧИ";"9771530";
"113059";"ВЫСТУПОВИЧИ (АВТО)";"9771532";
"113060";"ВЫСТУПОВИЧИ (Ж.Д.)";"9771533";
"119550";"ВЯРТСИЛЯ";"9712170";
"120397";"ВЯРТСИЛЯ (АВТО)";"9712172";
"120398";"ВЯРТСИЛЯ (Ж.Д.)";"9712173";
"112547";"ГАЙВОРОН";"9771650";
"120621";"ГАРАХ (АВТО)";"9731162";
"113230";"ГАУДАН (АВТО)";"9789192";
"120059";"ГЕЛЕНДЖИК";"9728200";
"119842";"ГЕЛЕНДЖИК (АВИА)";"9728201";
"120060";"ГЕЛЕНДЖИК (МОРЕ)";"9728204";
"119781";"ГЛУШКОВО";"9723200";
"119782";"ГЛУШКОВО (Ж.Д.)";"9723203";
"119940";"ГОЛОВЧИНО";"9724190";
"119941";"ГОЛОВЧИНО (АВТО)";"9724192";
"119942";"ГОЛОВЧИНО (Ж.Д.)";"9724193";
"113194";"ГОМЕЛЬ";"9780200";
"112548";"ГОПТОВКА";"9771680";
"112549";"ГОПТОВКА (АВТО)";"9771682";
"119835";"ГОРДЕЕВКА (АВТО)";"9723242";
"112550";"ГОРНОСТАЕВКА";"9771720";
"112884";"ГОРНЯК (АВТО)";"9754212";
"112551";"ГОСТОМЕЛЬ";"9771770";
"112552";"ГОСТОМЕЛЬ (АВИА)";"9771771";
"119755";"ГРАБЦЕВО (АВИА)";"9701091";
"119943";"ГРАЙВОРОН";"9724210";
"119944";"ГРАЙВОРОН (АВТО)";"9724212";
"112553";"ГРЕМЯЧЕ";"9771810";
"113195";"ГРОДНО";"9780210";
"113196";"ГРОДНО (АВТО)";"9780212";
"113197";"ГРОДНО (Ж.Д.)";"9780213";
"128521";"ГРОЗНЫЙ (СЕВЕРНЫЙ) (АВИА)";"9747010";
"128487";"ГРОЗНЫЙ-АЭРОПОРТ";"9747020";
"119975";"ГУКОВО";"9725210";
"119976";"ГУКОВО (АВТО)";"9725212";
"119977";"ГУКОВО (Ж.Д.)";"9725213";
"120517";"ГУСЕВ";"9718210";
"119552";"ГУСЕВ (АВТО)";"9718212";
"112823";"ДЕ-КАСТРИ";"9748220";
"112824";"ДЕ-КАСТРИ (МОРЕ)";"9748224";
"112554";"ДЕЛОВОЕ";"9771930";
"112555";"ДЕЛОВОЕ (Ж.Д.)";"9771933";
"120622";"ДЕРБЕНТ";"9731220";
"120623";"ДЕРБЕНТ (Ж.Д.)";"9731223";
"120789";"ДЖАЛИНДА";"9742220";
"119808";"ДЖАЛИНДА (АВТО)";"9742222";
"120790";"ДЖАЛИНДА (РЕЧ.)";"9742225";
"128647";"ДЖАНКОЙ (Ж. Д.)";"9791005";
"113211";"ДЖУЛЬФА (Ж.Д.)";"9783223";
"120773";"ДЗЕМГИ (АВИА)";"9741221";
"112556";"ДНЕПРОПЕТРОВСК";"9771980";
"112557";"ДНЕПРОПЕТРОВСК (АВИА)";"9771981";
"112558";"ДОБРЯНКА";"9772050";
"112559";"ДОБРЯНКА (АВТО)";"9772052";
"119945";"ДОЛБИНО";"9724250";
"119946";"ДОЛБИНО (Ж.Д.)";"9724253";
"112560";"ДОЛЖАНСКИЙ";"9772070";
"112561";"ДОМАНОВО";"9772090";
"119756";"ДОМОДЕДОВО (АВИА)";"9701121";
"119978";"ДОНЕЦК";"9725220";
"112562";"ДОНЕЦК (АВИА)";"9772101";
"119979";"ДОНЕЦК (АВТО)";"9725222";
"112563";"ДРУЖБА";"9772150";
"112564";"ДРУЖБА (Ж.Д.)";"9772153";
"119532";"ДУДИНКА";"9706250";
"119878";"ДУДИНКА (МОРЕ)";"9706254";
"113226";"ДУШАНБЕ";"9788250";
"112840";"ДУЭ (МОРЕ)";"9749244";
"112565";"ДЬЯКОВО";"9772200";
"112566";"ДЬЯКОВО (АВТО)";"9772202";
"112567";"ДЬЯКОВО (Ж.Д.)";"9772203";
"112568";"ЕВПАТОРИЯ";"9772260";"27.05.2014 00:00:00.0"
"112569";"ЕВПАТОРИЯ (АВТО)";"9772262";"27.05.2014 00:00:00.0"
"112570";"ЕВПАТОРИЯ (МОРЕ)";"9772264";"27.05.2014 00:00:00.0"
"128656";"ЕВПАТОРИЯ (МОРЕ)";"9791010";
"120061";"ЕЙСК";"9728260";
"120062";"ЕЙСК (МОРЕ)";"9728264";
"112999";"ЕКАТЕРИНБУРГ (АВИА)";"9757261";
"119783";"ЕЛИЗАВЕТОВКА (АВТО)";"9723322";
"120801";"ЕЛИЗОВО (АВИА)";"9753261";
"120662";"ЕМЕЛЬЯНОВО";"9737260";
"120663";"ЕМЕЛЬЯНОВО (АВИА)";"9737261";
"113219";"ЕРЕВАН (АВИА)";"9785271";
"119757";"ЕРМОЛИНО (АВИА)";"9701141";
"120518";"ЖЕЛЕЗНОДОРОЖНЫЙ (Ж.Д.)";"9718283";
"120756";"ЖЕЛТУРА (АВТО)";"9739262";
"119758";"ЖУКОВСКИЙ (АВИА)";"9701161";
"112571";"ЖУЛЯНЫ";"9772540";
"112572";"ЖУЛЯНЫ (АВИА)";"9772541";
"120934";"ЖУЛЯНЫ (АВТО)";"9772542";
"120642";"ЗАБАЙКАЛЬСК";"9735300";
"120643";"ЗАБАЙКАЛЬСК (АВТО)";"9735302";
"120644";"ЗАБАЙКАЛЬСК (Ж.Д.)";"9735303";
"119980";"ЗАКОРДОННЫЙ (Ж.Д.)";"9725333";
"112573";"ЗАПОРОЖЬЕ";"9772650";
"112574";"ЗАПОРОЖЬЕ (АВИА)";"9772651";
"112799";"ЗАРУБИНО";"9746300";
"112800";"ЗАРУБИНО (МОРЕ)";"9746304";
"113000";"ЗАУРАЛЬЕ (Ж.Д.)";"9757283";
"113001";"ЗВЕРИНОГОЛОВСКОЕ (АВТО)";"9757302";
"120547";"ЗЕРНОВО";"9722310";
"119904";"ИВАНГОРОД";"9711340";
"119905";"ИВАНГОРОД (АВТО)";"9711342";
"120392";"ИВАНГОРОД (Ж.Д.)";"97"11343";
"119549";"ИВАНГОРОД (ПЕШ.)";"97"11346";
"119759";"ИВАНОВО (АВИА)";"9701221";
"112575";"ИВАНО-ФРАНКОВСК";"9772830";
"120935";"ИВАНО-ФРАНКОВСК (АВИА)";"9772831";
"119879";"ИГАРКА";"9706330";
"119880";"ИГАРКА (МОРЕ)";"9706334";
"112576";"ИЗВАРИНО";"9772860";
"112577";"ИЗМАИЛ";"9772880";
"112578";"ИЗМАИЛ (АВИА)";"9772881";
"120936";"ИЗМАИЛ (АВТО)";"9772882";
"112579";"ИЗМАИЛ (МОРЕ)";"9772884";
"112969";"ИЛЕК (АВТО)";"9756282";
"119947";"ИЛЕК-ПЕНЬКОВКА";"9724350";
"119948";"ИЛЕК-ПЕНЬКОВКА (Ж.Д.)";"9724353";
"112970";"ИЛЕЦК-1 (Ж.Д.)";"9756313";
"112971";"ИЛЕЦК-2 (Ж.Д.)";"9756323";
"112580";"ИЛОВАЙСК";"9772910";
"120937";"ИЛЬИЧЕВСК";"9772930";
"112581";"ИЛЬИЧЕВСК (АВТО)";"9772932";
"112582";"ИЛЬИЧЕВСК (МОРЕ)";"9772934";
"120459";"ИНАРИ (АВТО)";"9712362";
"120664";"ИРКУТСК (АВИА)";"9737351";
"113022";"ИРТЫШСКОЕ-1 (Ж.Д.)";"9758233";
"120811";"ИРТЫШСКОЕ-2 (Ж.Д.)";"9758243";
"113023";"ИСИЛЬКУЛЬ (АВТО)";"9758272";
"113024";"ИСИЛЬКУЛЬ (Ж.Д.)";"9758273";
"113002";"КАЗАНКА (АВТО)";"9757332";
"113003";"КАЗАНСКОЕ (АВТО)";"9757342";
"112972";"КАЗАНЬ (АВИА)";"9756371";
"120938";"КАЗАЧЬЯ ЛОПАНЬ";"9773070";
"112962";"КАЙСАЦКОЕ (АВТО)";"9755322";
"112963";"КАЙСАЦКОЕ (Ж.Д.)";"9755323";
"113235";"КАКАЙДЫ";"9790420";
"120519";"КАЛИНИНГРАД";"9718370";
"120520";"КАЛИНИНГРАД (АВИА)";"9718371";
"120521";"КАЛИНИНГРАД (АВТО)";"9718372";
"119553";"КАЛИНИНГРАД (Ж.Д.)";"9718373";
"120522";"КАЛИНИНГРАД (МОРЕ)";"9718374";
"120523";"КАЛИНИНГРАД (РЕЧ.)";"9718375";
"129399";"КАЛУГА (АВИА)";"9740000";
"112583";"КАМЕНЕЦ-ПОДОЛЬСКИЙ";"9773110";
"112584";"КАМЫШ-БУРУН";"9773130";
"119852";"КАНДАЛАКША";"9703370";
"119853";"КАНДАЛАКША (МОРЕ)";"9703374";
"120671";"КАРАГАЙ (АВТО)";"9738412";
"112973";"КАРАГАНДА (АВТО)";"9756392";
"113025";"КАРАМАН (АВТО)";"9758312";
"113026";"КАРАСУК (Ж.Д.)";"9758333";
"113044";"КАРАУЗЕК (АВТО)";"9759452";
"113004";"КАРТАЛЫ-1 (Ж.Д.)";"9757373";
"113005";"КАРТАЛЫ-2 (Ж.Д.)";"9757383";
"120921";"КЕЛИФ (РЕЧ.)";"9789385";
"120939";"КЕЛЬМЕНЦЫ";"9773180";
"112585";"КЕЛЬМЕНЦЫ (АВТО)";"9773182";
"112586";"КЕЛЬМЕНЦЫ (Ж.Д.)";"9773183";
"120812";"КЕМЕРОВО (АВИА)";"9758381";
"120460";"КЕМЬ";"9712380";
"120461";"КЕМЬ (МОРЕ)";"9712384";
"120940";"КЕРЧЬ (МОРЕ)";"9773254";"27.05.2014 00:00:00.0"
"128653";"КЕРЧЬ (МОРЕ)";"9791007";
"120462";"КИВИВААРА (АВТО)";"9712412";
"112587";"КИЕВ (АВИА)";"9773331";
"127598";"КИЕВСКИЙ ВОКЗАЛ (Ж.Д.)";"9701633";
"119799";"КИРАН (АВТО)";"9739382";
"113202";"КИШИНЕВ";"9782400";
"113203";"КИШИНЕВ (АВИА)";"9782401";
"113240";"КЛАЙПЕДА (МОРЕ)";"9792424";
"119949";"КЛИМЕНКИ (АВТО)";"9724392";
"120548";"КЛИМОВО";"9722420";
"120549";"КЛИМОВО (Ж.Д.)";"9722423";
"119760";"КЛИН (АВИА)";"9701421";
"113027";"КОГАЛЫМ (АВИА)";"9758431";
"113198";"КОЗЛОВИЧИ (АВТО)";"9780432";
"120463";"КОККОЯРВИ (АВТО)";"9712442";
"120464";"КОЛВАСЯРВИ (АВТО)";"9712462";
"119950";"КОЛОТИЛОВКА (АВТО)";"9724432";
"128034";"КОЛЬЦОВО (АВИА)";"9758371";
"112974";"КОМСОМОЛЬСКИЙ (АВТО)";"9756422";
"119804";"КОМСОМОЛЬСК-НА-АМУРЕ";"9741430";
"120774";"КОМСОМОЛЬСК-НА-АМУРЕ (РЕЧ.)";"9741435";
"112588";"КОНОТОП";"9773450";
"120791";"КОНСТАНТИНОВКА";"9742430";
"112782";"КОНСТАНТИНОВКА (АВТО)";"9742432";
"120611";"КОНСТАНТИНОВКА (РЕЧ.)";"9742435";
"120473";"КОРПИСЕЛЬКА (АВТО)";"9712732";
"112841";"КОРСАКОВ";"9749390";
"112842";"КОРСАКОВ (МОРЕ)";"9749394";
"112871";"КОРФ";"9753430";
"112872";"КОРФ (МОРЕ)";"9753434";
"112843";"КРАБОЗАВОДСКОЕ";"9749430";
"112844";"КРАБОЗАВОДСКОЕ (МОРЕ)";"9749434";
"120941";"КРАКОВЕЦ";"9773550";
"112589";"КРАКОВЕЦ (АВТО)";"9773552";
"112805";"КРАСКИНО";"9747440";
"112806";"КРАСКИНО (АВТО)";"9747442";
"112590";"КРАСНАЯ МОГИЛА";"9773570";
"119843";"КРАСНОДАР";"9728390";
"120063";"КРАСНОДАР-1 (ПАШКОВСКАЯ)(АВИА)";"9728391";
"120064";"КРАСНОДАР-2 (АВИА)";"9728401";
"120645";"КРАСНОКАМЕНСК (АВИА)";"9735411";
"120665";"КРАСНОЯРСК";"9737440";
"120666";"КРАСНОЯРСК (АВИА)";"9737441";
"120942";"КРЕМЕНЧУГ";"9773600";
"112591";"КРЕМЕНЧУГ (АВТО)";"9773602";
"112592";"КРИВОЙ РОГ (АВИА)";"9773691";
"119784";"КРУПЕЦ";"9723450";
"119785";"КРУПЕЦ (АВТО)";"9723452";
"120476";"КРУПП";"9713420";
"120477";"КРУПП (АВТО)";"9713422";
"113006";"КРУТОЯРКА (АВТО)";"9757412";
"120943";"КРЫМ-КУБАНЬ";"9773740";
"112593";"КРЫМ-КУБАНЬ (АВТО)";"9773742";
"112594";"КРЫМ-КУБАНЬ (МОРЕ)";"9773744";
"120065";"КУБАНЬ";"9728450";
"119916";"КУБАНЬ (МОРЕ)";"9728454";
"120066";"КУБАНЬ (ПАРОМ)";"9728455";
"119761";"КУБИНКА (АВИА)";"9701461";
"119981";"КУЙБЫШЕВО (АВТО)";"9725412";
"112964";"КУЛИКОВ (АВТО)";"9755372";
"112954";"КУЛУНДА (Ж.Д.)";"9754363";
"112955";"КУЛУНДА-1 (АВТО)";"9754372";
"120808";"КУЛУНДА-2 (АВТО)";"9754382";
"120478";"КУЛЬЕ (ПЕШ.)";"9713446";
"119860";"КУНДАС (АВТО)";"9703652";
"120479";"КУНИЧИНА ГОРА";"9713450";
"120480";"КУНИЧИНА ГОРА (АВТО)";"9713452";
"120399";"КУОЛИСМАА (АВТО)";"9712202";
"113028";"КУПИНО (АВТО)";"9758462";
"120944";"КУПЯНСК";"9773810";
"112845";"КУРИЛЬСК";"9749460";
"112846";"КУРИЛЬСК (МОРЕ)";"9749464";
"119786";"КУРСК";"9723460";
"119836";"КУРСК (АВИА)";"9723461";
"120524";"КУРШСКАЯ КОСА";"9718460";
"119923";"КУЧЕРОВ (АВТО)";"9723492";
"112595";"КУЧУРГАН";"9773880";
"112596";"КУЧУРГАН (АВТО)";"9773882";
"120945";"КУЧУРГАН (Ж.Д.)";"9773883";
"113232";"КУШКА";"9789460";
"120922";"КУШКА (АВТО)";"9789462";
"113233";"КУШКА (Ж.Д.)";"9789463";
"120757";"КЫЗЫЛ ХАЯ (АВТО)";"9739422";
"120655";"КЯХТА";"9736460";
"120656";"КЯХТА (АВТО)";"9736462";
"112873";"ЛАВРЕНТИЯ (МОРЕ)";"9753494";
"112825";"ЛАЗАРЕВ";"9748470";
"112826";"ЛАЗАРЕВ (МОРЕ)";"9748474";
"113241";"ЛАЗДИЯЙ";"9792470";
"120915";"ЛЕНИНАКАН (Ж.Д.)";"9785473";
"113204";"ЛЕУШЕНЫ (АВТО)";"9782472";
"129090";"Липецк (Авиа)";"9748011";
"119951";"ЛОГАЧЕВКА (АВТО)";"9724482";
"112956";"ЛОКОТЬ (Ж.Д.)";"9754443";
"120550";"ЛОМАКОВКА (АВТО)";"9722472";
"119856";"ЛОТТА (АВТО)";"9703482";
"112597";"ЛУГАНСК";"9774090";
"120491";"ЛУДОНКА";"9714470";
"120492";"ЛУДОНКА (АВТО)";"9714472";
"120493";"ЛУДОНКА (Ж.Д.)";"9714473";
"119884";"ЛУЖАЙКА (Ж.Д.)";"9709473";
"112598";"ЛУЖАНКА";"9774150";
"120946";"ЛУЖАНКА (АВТО)";"9774152";
"120703";"ЛЬВОВ (АВИА)";"9774181";
"120465";"ЛЮТТЯ";"9712490";
"120466";"ЛЮТТЯ (АВТО)";"9712492";
"120467";"ЛЮТТЯ (Ж.Д.)";"9712493";
"120494";"ЛЯМОНЫ";"9714490";
"120495";"ЛЯМОНЫ (АВТО)";"9714492";
"112864";"МАГАДАН";"9752500";
"112865";"МАГАДАН (АВИА)";"9752501";
"112866";"МАГАДАН (МОРЕ)";"9752504";
"113007";"МАГНИТОГОРСК (АВИА)";"9757461";
"112827";"МАГО";"9748500";
"112828";"МАГО (МОРЕ)";"9748504";
"120073";"МАЙКОП";"9729480";
"120074";"МАЙКОП (АВИА)";"9729481";
"112957";"МАЛИНОВОЕ ОЗЕРО (АВТО)";"9754492";
"113045";"МАЛЫЙ АРАЛ (АВТО)";"9759532";
"120819";"МАЛЫЙ БЕРЕЗНЫЙ";"9770540";
"113051";"МАЛЫЙ БЕРЕЗНЫЙ (АВТО)";"9770542";
"120704";"МАМАЛЫГА";"9774260";
"120705";"МАМАЛЫГА (АВТО)";"9774262";
"120706";"МАМАЛЫГА (Ж.Д.)";"9774263";
"120525";"МАМОНОВО";"9718500";
"120526";"МАМОНОВО (Ж.Д.)";"9718503";
"120527";"МАМОНОВО-1 (АВТО)";"9718512";
"120528";"МАМОНОВО-2 (АВТО)";"9718522";
"113225";"МАНАС";"9787500";
"112847";"МАНГИДАЙ (МОРЕ)";"9749514";
"120496";"МАНУХНОВО (АВТО)";"9714542";
"113008";"МАРИИНСКИЙ (АВТО)";"9757492";
"120707";"МАРИНОВКА";"9774300";
"120708";"МАРИУПОЛЬ";"9774320";
"120709";"МАРИУПОЛЬ (АВИА)";"9774321";
"120710";"МАРИУПОЛЬ (МОРЕ)";"9774324";
"112807";"МАРКОВО";"9747500";
"112808";"МАРКОВО (АВТО)";"9747502";
"119982";"МАТВЕЕВ КУРГАН";"9725500";
"119983";"МАТВЕЕВ КУРГАН (АВТО)";"9725502";
"112809";"МАХАЛИНО";"9747510";
"112810";"МАХАЛИНО (Ж.Д.)";"9747513";
"120624";"МАХАЧКАЛА";"9731510";
"120625";"МАХАЧКАЛА (АВИА)";"9731511";
"120626";"МАХАЧКАЛА (МОРЕ)";"9731514";
"112975";"МАШТАКОВО (АВТО)";"9756512";
"120711";"МАЯКИ";"9774350";
"120481";"МЕДЛИ (РЕЧ.)";"9713525";
"119868";"МЕЗЕНЬ";"9704510";
"119869";"МЕЗЕНЬ (МОРЕ)";"9704514";
"119849";"МЕЛЬКЕФОССКАЯ ГЭС (АВТО)";"9703152";
"119837";"МИЛЛЕРОВО";"9725520";
"119984";"МИЛЛЕРОВО (Ж.Д.)";"9725523";
"120075";"МИНВОДЫ (АВИА)";"9729531";
"113199";"МИНСК (АВИА)";"9780521";
"112958";"МИХАЙЛОВКА (АВТО)";"9754522";
"120712";"МИХАЙЛОВСКИЙ";"9774380";
"120713";"МОГИЛЕВ-ПОДОЛЬСКИЙ";"9774410";
"120714";"МОГИЛЕВ-ПОДОЛЬСКИЙ (АВТО)";"9774412";
"120715";"МОГИЛЕВ-ПОДОЛЬСКИЙ (Ж.Д.)";"9774413";
"120507";"МОГИЛИ (АВТО)";"9715542";
"120667";"МОНДЫ (АВТО)";"9737542";
"119787";"МОРСКОЕ (АВТО)";"9718462";
"119867";"МОРСКОЙ ПОРТ ПРИГОРОДНОЕ";"9704310";
"112848";"МОСКАЛЬВО (МОРЕ)";"9749544";
"119762";"МОСКВА (АВИА)";"9701551";
"120716";"МОСТИСКА";"9774520";
"120717";"МОСТИСКА (АВТО)";"9774522";
"120718";"МОСТИСКА (Ж.Д.)";"9774523";
"120758";"МУГУР АКСЫ (АВТО)";"9739512";
"120482";"МУРАШКИНО (АВТО)";"9713572";
"119857";"МУРМАНСК";"9703550";
"119858";"МУРМАНСК (АВИА)";"9703551";
"119859";"МУРМАНСК (МОРЕ)";"9703554";
"120468";"МЯКИЯРВИ (АВТО)";"9712522";
"120076";"НАЛЬЧИК";"9729570";
"119919";"НАЛЬЧИК (АВИА)";"9729571";
"112937";"НАРОДНЫЙ";"9990949";
"119870";"НАРЬЯН-МАР";"9704570";
"119871";"НАРЬЯН-МАР (МОРЕ)";"9704574";
"120759";"НАУШКИ (АВТО)";"9739552";
"120657";"НАУШКИ (Ж.Д.)";"9736573";
"120613";"НАХОДКА";"9745570";
"112791";"НАХОДКА (МОРЕ)";"9745574";
"120614";"НЕВЕЛЬСК (МОРЕ)";"9749574";
"128520";"НЕВЕРОВСКАЯ (Ж.Д.)";"9754853";
"113009";"НЕВЕРОВСКОЕ (АВТО)";"9757522";
"113029";"НЕВОЛЬНОЕ (АВТО)";"9758502";
"119885";"НЕВСКИЙ ГРУЗ.РАЙОН (РЕЧ.)";"9709545";
"119952";"НЕЖЕГОЛЬ";"9724560";
"119953";"НЕЖЕГОЛЬ (Ж.Д.)";"9724563";
"120534";"НЕСТЕРОВ";"9719570";
"120535";"НЕСТЕРОВ (Ж.Д.)";"9719573";
"119954";"НЕХОТЕЕВКА";"9724590";
"119955";"НЕХОТЕЕВКА (АВТО)";"9724592";
"120719";"НИЖАНКОВИЧИ (Ж.Д.)";"9774913";
"113010";"НИЖНЕВАРТОВСК (АВИА)";"9757561";
"112976";"НИЖНЕКАМСК (АВИА)";"9756561";
"120775";"НИЖНЕЛЕНИНСКОЕ";"9741570";
"120776";"НИЖНЕЛЕНИНСКОЕ (АВТО)";"9741572";
"120777";"НИЖНЕЛЕНИНСКОЕ (РЕЧ.)";"9741575";
"120638";"НИЖНИЙ ЗАРАМАГ";"9732570";
"120639";"НИЖНИЙ ЗАРАМАГ-1 (АВТО)";"9732572";
"112977";"НИЖНИЙ НОВГОРОД (АВИА)";"9756581";
"113227";"НИЖНИЙ ПЯНДЖ (РЕЧ.)";"9788585";
"120720";"НИКОЛАЕВ";"9775150";
"120721";"НИКОЛАЕВ (АВИА)";"9775151";
"120722";"НИКОЛАЕВ (МОРЕ)";"9775154";
"113011";"НИКОЛАЕВКА (АВТО)";"9757592";
"112829";"НИКОЛАЕВСК-НА-АМУРЕ";"974858";
"112830";"НИКОЛАЕВСК-НА-АМУРЕ (МОРЕ)";"9748584";
"120813";"НИКОПОЛЬ (АВТО)";"9758542";
"119788";"НОВГОРОД";"9718590";
"120723";"НОВОАЗОВСК";"9775260";
"120724";"НОВОАЗОВСК (АВТО)";"9775262";
"119985";"НОВОБЕЛАЯ (АВТО)";"9725562";
"113030";"НОВОКАРАСУК (АВТО)";"9758572";
"120067";"НОВОРОССИЙСК";"9728590";
"120068";"НОВОРОССИЙСК (АВИА)";"9728591";
"120069";"НОВОРОССИЙСК (МОРЕ)";"9728594";
"113031";"НОВОСИБИРСК (АВИА)";"9758591";
"120627";"НОВО-ФИЛЯ (АВТО)";"9731592";
"119986";"НОВОШАХТИНСК";"9725590";
"119838";"НОВОШАХТИНСК (АВТО)";"9725592";
"119795";"НОВЫЕ ЮРКОВИЧИ";"9722590";
"120551";"НОВЫЕ ЮРКОВИЧИ (АВТО)";"9722592";
"120725";"НОВЫЕ ЯРЫЛОВИЧИ";"9775340";
"120726";"НОВЫЕ ЯРЫЛОВИЧИ (АВТО)";"9775342";
"119800";"НОВЫЙ ДУРУЛГУЙ (АВТО)";"9739592";
"119854";"НОВЫЙ ПОРТ";"9703410";
"119855";"НОВЫЙ ПОРТ (МОРЕ)";"9703414";
"112849";"НОГЛИКИ (МОРЕ)";"9749594";
"120727";"ОВРУЧ";"9775450";
"120728";"ОДЕССА";"9775550";
"120729";"ОДЕССА (АВИА)";"9775551";
"120730";"ОДЕССА (АВТО)";"9775552";
"120731";"ОДЕССА (МОРЕ)";"9775554";
"113032";"ОДЕССКОЕ (АВТО)";"9758612";
"112978";"ОЗИНКИ";"9756600";
"112979";"ОЗИНКИ (АВТО)";"9756602";
"112980";"ОЗИНКИ (Ж.Д.)";"9756603";
"112874";"ОКТЯБРЬСКИЙ";"9753620";
"120802";"ОКТЯБРЬСКИЙ (МОРЕ)";"9753624";
"120646";"ОЛОЧИ";"9735620";
"120647";"ОЛОЧИ (АВТО)";"9735622";
"112792";"ОЛЬГА (МОРЕ)";"9745644";
"120814";"ОЛЬХОВКА (АВТО)";"9758642";
"120817";"ОЛЯ (МОРЕ)";"9759624";
"113033";"ОМСК (АВИА)";"9758621";
"119872";"ОНЕГА";"9704640";
"119873";"ОНЕГА (МОРЕ)";"9704644";
"119861";"ОНКАМО (АВТО)";"9703702";
"112982";"ОРЕНБУРГ-2 (АВИА)";"9756631";
"112981";"ОРЕНБУРГ-ЦЕНТРАЛЬНЫЙ (АВИА)";"9756621";
"112983";"ОРСК (АВИА)";"9756651";
"112984";"ОРСК (АВТО)";"9756652";
"112985";"ОРСК (Ж.Д.)";"9756653";
"119763";"ОСТАФЬЕВО (АВИА)";"9701671";
"112850";"ОХА (МОРЕ)";"9749624";
"112867";"ОХОТСК";"9752630";
"112868";"ОХОТСК (МОРЕ)";"9752634";
"113234";"ОШ";"9789630";
"120923";"ОШ (АВИА)";"9789631";
"120809";"ПАВЛОВКА";"9754600";
"128599";"Павловка (НСО)";"9758452";
"120393";"ПАРУСИНКА";"9711650";
"120394";"ПАРУСИНКА (АВТО)";"9711652";
"119805";"ПАШКОВО";"9741640";
"120778";"ПАШКОВО (АВТО)";"9741642";
"120779";"ПАШКОВО (РЕЧ.)";"9741645";
"112986";"ПЕРВОМАЙСКОЕ (АВТО)";"9756682";
"128648";"ПЕРЕКОП (АРМЯНСК) (АВТО)";"9791002";
"113012";"ПЕРМЬ (АВИА)";"9757661";
"120471";"ПЕТРОЗАВОДСК";"9712660";
"120472";"ПЕТРОЗАВОДСК (АВИА)";"9712661";
"112875";"ПЕТРОПАВЛОВСК-КАМЧАТСКИЙ";"9753660";
"112876";"ПЕТРОПАВЛОВСК-КАМЧАТСКИЙ (АВИА)";"9753661";
"112877";"ПЕТРОПАВЛОВСК-КАМЧАТСКИЙ (МОРЕ)";"9753664";
"113013";"ПЕТУХОВО (АВТО)";"9757712";
"113014";"ПЕТУХОВО (Ж.Д.)";"9757713";
"120483";"ПЕЧОРЫ";"9713660";
"120484";"ПЕЧОРЫ (Ж.Д.)";"9713663";
"112851";"ПИЛЬВО (МОРЕ)";"9749654";
"112936";"ПИНСК";"9990948";
"120529";"ПИОНЕРСКИЙ";"9718660";
"120530";"ПИОНЕРСКИЙ (МОРЕ)";"9718664";
"112793";"ПЛАСТУН (МОРЕ)";"9745694";
"120732";"ПЛАТОНОВО";"9776000";
"119987";"ПЛЕШАКОВО";"9725660";
"119988";"ПЛЕШАКОВО (Ж.Д.)";"9725663";
"120552";"ПОГАР";"9722670";
"120553";"ПОГАР (АВТО)";"9722672";
"120536";"ПОГРАНИЧНЫЙ (СОВЕТСК)(АВТО)";"9719672";
"112811";"ПОГРАНИЧНЫЙ (УССУРИЙСК)";"9747650";
"112812";"ПОГРАНИЧНЫЙ (УССУРИЙСК)(АВИА)";"9747651";
"112813";"ПОГРАНИЧНЫЙ (УССУРИЙСК)(АВТО)";"9747652";
"112814";"ПОГРАНИЧНЫЙ (УССУРИЙСК)(Ж.Д.)";"9747653";
"120648";"ПОКРОВКА (ЗАБАЙКАЛЬСК)";"9735670";
"120649";"ПОКРОВКА (ЗАБАЙКАЛЬСК)(АВТО)";"9735672";
"120780";"ПОКРОВКА (ХАБАРОВСК)";"9741670";
"119806";"ПОКРОВКА (ХАБАРОВСК)(АВТО)";"9741672";
"120781";"ПОКРОВКА (ХАБАРОВСК)(РЕЧ.)";"9741675";
"113200";"ПОЛОЦК";"9780670";
"112815";"ПОЛТАВКА";"9747670";
"112816";"ПОЛТАВКА (АВТО)";"9747672";
"112965";"ПОЛЫННЫЙ (АВТО)";"9755662";
"119956";"ПОНЫРИ (АВТО)";"9724662";
"120615";"ПОРОНАЙСК";"9749670";
"112852";"ПОРОНАЙСК (МОРЕ)";"9749674";
"119917";"ПОРТ КАВКАЗ";"9728670";
"120070";"ПОРТ КАВКАЗ (МОРЕ)";"9728674";
"120733";"ПОРУБНОЕ";"9776070";
"120734";"ПОРУБНОЕ (АВТО)";"9776072";
"128519";"ПОСИНЬ (Ж.Д.)";"9715755";
"112801";"ПОСЬЕТ";"9746670";
"112802";"ПОСЬЕТ (МОРЕ)";"9746674";
"120912";"ПОТИ";"9784670";
"113215";"ПОТИ (МОРЕ)";"9784674";
"112783";"ПОЯРКОВО";"9742670";
"112784";"ПОЯРКОВО (АВТО)";"9742672";
"112785";"ПОЯРКОВО (РЕЧ.)";"9742675";
"119900";"ПРИМОРСК (МОРЕ)";"9710684";
"112878";"ПРОВИДЕНИЯ";"9753680";
"120803";"ПРОВИДЕНИЯ (АВИА)";"9753681";
"112879";"ПРОВИДЕНИЯ (МОРЕ)";"9753684";
"120485";"ПСКОВ";"9713690";
"120486";"ПСКОВ (АВИА)";"9713691";
"120487";"ПСКОВ (РЕЧ.)";"9713695";
"120735";"ПУЛЕМЕЦ";"9776180";
"119886";"ПУЛКОВО (АВИА)";"9709681";
"120497";"ПУНДУРИ (АВТО)";"9714612";
"120498";"ПУРВМАЛА (АВТО)";"9714652";
"120499";"ПЫТАЛОВО";"9714690";
"120500";"ПЫТАЛОВО (АВТО)";"9714692";
"120501";"ПЫТАЛОВО (Ж.Д.)";"9714693";
"120736";"РАВА-РУССКАЯ";"9776440";
"120737";"РАВА-РУССКАЯ (АВТО)";"9776442";
"113034";"РАДУЖНЫЙ (АВИА)";"9758701";
"119957";"РАЗЪЕЗД ВЫСТРЕЛ";"9724700";
"119958";"РАЗЪЕЗД ВЫСТРЕЛ (Ж.Д.)";"9724703";
"119989";"РАЗЪЕЗД КАРЬЕР 122 КМ (Ж.Д.)";"9725703";
"112853";"РЕЙД МАКАРОВА";"9749700";
"112854";"РЕЙД МАКАРОВА (МОРЕ)";"9749704";
"120738";"РЕНИ";"9776510";
"120739";"РЕНИ (АВТО)";"9776512";
"120740";"РЕНИ (Ж.Д.)";"9776513";
"120741";"РЕНИ (МОРЕ)";"9776514";
"120742";"РЕПКИ";"9776580";
"120743";"РЕПКИ (АВТО)";"9776582";
"113237";"РИГА";"9791720";
"113238";"РИГА (АВИА)";"9791721";
"113239";"РИГА (МОРЕ)";"9791724";
"119551";"РИСТИЛАХТИ (АВТО)";"9712232";
"119959";"РОВЕНЬКИ";"9724730";
"119960";"РОВЕНЬКИ (АВТО)";"9724732";
"119961";"РОВЕНЬКИ-1";"9724740";
"119962";"РОВЕНЬКИ-1 (АВТО)";"9724742";
"120469";"РОВКУЛЫ (АВТО)";"9712562";
"120744";"РОВНО";"9776670";
"120745";"РОССОШАНЫ";"9776730";
"120746";"РОССОШАНЫ (АВТО)";"9776732";
"119990";"РОСТОВ-НА-ДОНУ";"9725730";
"119839";"РОСТОВ-НА-ДОНУ (АВИА)";"9725731";
"119991";"РОСТОВ-НА-ДОНУ (РЕЧ.)";"9725735";
"113036";"РОЩИНО";"9758841";
"112959";"РУБЦОВСК (Ж.Д.)";"9754703";
"119789";"РЫБАЧИЙ";"9718730";
"120531";"РЫБАЧИЙ (РЕЧ.)";"9718735";
"112987";"САГАРЧИН (АВТО)";"9756722";
"119862";"САЛЛА (АВТО)";"9703742";
"112988";"САМАРА (АВИА)";"9756741";
"127586";"САМАРА (КУРУМОЧ) (АВИА)";"9756741";
"120760";"САНАГА (АВТО)";"9739652";
"119887";"САНКТ-ПЕТЕРБУРГ";"9709740";
"119888";"САНКТ-ПЕТЕРБУРГ (АВИА)";"9709741";
"119889";"САНКТ-ПЕТЕРБУРГ (МОРЕ)";"9709744";
"119890";"САНКТ-ПЕТЕРБУРГ ПРИЧАЛ НА  НАБЕРЕЖНОЙ ЛЕЙТЕНАНТА ШМИДТА (МОРЕ)";"9709746";
"119535";"САНКТ-ПЕТЕРБУРГ ПРИЧАЛ НА АНГЛИЙСКОЙ НАБЕРЕЖНОЙ (МОРЕ)";"9709745";
"128518";"САНКТ-ПЕТЕРБУРГ-ФИНЛЯНДСКИЙ (Ж.Д.)";"9990950";
"112989";"САРАТОВ (АВИА)";"9756761";
"120913";"САРПИ (АВТО)";"9784752";
"120761";"САРЫГ ХОЛЬ-1 (АВТО)";"9739682";
"120762";"САРЫГ ХОЛЬ-2 (АВТО)";"9739692";
"120616";"САХАЛИН";"9749740";
"112990";"СВЕТЛЫЙ (АВТО)";"9756792";
"120532";"СВЕТЛЫЙ (МОРЕ)";"9718744";
"119901";"СВЕТОГОРСК";"9710740";
"119537";"СВЕТОГОРСК (АВТО)";"9710742";
"119902";"СВЕТОГОРСК (Ж.Д.)";"9710743";
"120508";"СЕБЕЖ";"9715750";
"120509";"СЕБЕЖ (Ж.Д.)";"9715753";
"120747";"СЕВАСТОПОЛЬ";"9776950";"27.05.2014 00:00:00.0"
"120748";"СЕВАСТОПОЛЬ (АВИА)";"9776951";"27.05.2014 00:00:00.0"
"120749";"СЕВАСТОПОЛЬ (МОРЕ)";"9776954";"27.05.2014 00:00:00.0"
"128657";"СЕВАСТОПОЛЬ (МОРЕ)";"9792001";
"112880";"СЕВЕРО-КУРИЛЬСК";"9753750";
"112881";"СЕВЕРО-КУРИЛЬСК (МОРЕ)";"9753754";
"120823";"СЕНЬКОВКА";"9776990";
"120824";"СЕНЬКОВКА (АВТО)";"9776992";
"128646";"СИВАШ (ДЖАНКОЙ) (АВТО)";"9791003";
"120825";"СИМФЕРОПОЛЬ (АВИА)";"9777071";"27.05.2014 00:00:00.0"
"128650";"СИМФЕРОПОЛЬ (АВИА)";"9791011";
"128652";"СИМФЕРОПОЛЬ (Ж. Д.)";"9791006";
"120826";"СКАДОВСК";"9777220";
"120827";"СКАДОВСК (АВТО)";"9777222";
"120828";"СКАДОВСК (МОРЕ)";"9777224";
"119850";"СКУГФОССКАЯ ГЭС (АВТО)";"9703202";
"120829";"СЛАВУТИЧ";"9777240";
"120830";"СЛАВУТИЧ (АВТО)";"9777242";
"112803";"СЛАВЯНКА";"9746790";
"112804";"СЛАВЯНКА (МОРЕ)";"9746794";
"113201";"СМОРГОНЬ";"9780770";
"119791";"СОВЕТСК";"9719770";
"120537";"СОВЕТСК (АВТО)";"9719772";
"120538";"СОВЕТСК (Ж.Д.)";"9719773";
"120539";"СОВЕТСК (РЕЧ.)";"9719775";
"112831";"СОВЕТСКАЯ ГАВАНЬ";"9748770";
"112832";"СОВЕТСКАЯ ГАВАНЬ (МОРЕ)";"9748774";
"120831";"СОКИРЯНЫ";"9777270";
"120832";"СОКИРЯНЫ (АВТО)";"9777272";
"119495";"СОКИРЯНЫ (Ж.Д.)";"9777273";
"120650";"СОЛОВЬЕВСК";"9735770";
"120651";"СОЛОВЬЕВСК (АВТО)";"9735772";
"120652";"СОЛОВЬЕВСК (Ж.Д.)";"9735773";
"119420";"СОЧИ";"9730770";
"119818";"СОЧИ (АВИА)";"9730771";
"119421";"СОЧИ (МОРЕ)";"9730774";
"112991";"СОЮЗНОЕ (АВТО)";"9756812";
"112992";"СОЮЗНОЕ (Ж.Д.)";"9756813";
"119414";"СТАВРОПОЛЬ";"9729780";
"119415";"СТАВРОПОЛЬ (АВИА)";"9729781";
"119963";"СТАРОСЕЛЬЕ (АВТО)";"9724782";
"120653";"СТАРОЦУРУХАЙТУЙ";"9735790";
"120654";"СТАРОЦУРУХАЙТУЙ (АВТО)";"9735792";
"120488";"СТОРОЖИНЕЦ (РЕЧ.)";"9713785";
"119924";"СУДЖА";"9723780";
"119925";"СУДЖА (АВТО)";"9723782";
"119796";"СУЗЕМКА";"9722780";
"120554";"СУЗЕМКА (Ж.Д.)";"9722783";
"120470";"СУОПЕРЯ (АВТО)";"9712592";
"113035";"СУРГУТ (АВИА)";"9758771";
"113216";"СУХУМИ";"9784780";
"113217";"СУХУМИ (АВИА)";"9784781";
"120914";"СУХУМИ (МОРЕ)";"9784784";
"119874";"СЫКТЫВКАР";"9704780";
"119875";"СЫКТЫВКАР (АВИА)";"9704781";
"120400";"СЮВЯОРО (АВТО)";"9712252";
"120049";"ТАГАНРОГ";"9725810";
"120050";"ТАГАНРОГ (АВИА)";"9725811";
"120051";"ТАГАНРОГ (Ж.Д.)";"9725813";
"119840";"ТАГАНРОГ (МОРЕ)";"9725814";
"120052";"ТАГАНРОГ-ЮЖНЫЙ (АВИА)";"9725831";
"120628";"ТАГИРКЕНТ-КАЗМАЛЯР";"9731810";
"120629";"ТАГИРКЕНТ-КАЗМАЛЯР (АВТО)";"9731812";
"120763";"ТАЙРИСИН-АРШАН (АВТО)";"9739742";
"120926";"ТАЛЛИН";"9793810";
"113242";"ТАЛЛИН (АВИА)";"9793811";
"120927";"ТАЛЛИН (МОРЕ)";"9793814";
"112855";"ТАНГИ (МОРЕ)";"9749784";
"120750";"ТАШАНТА";"9738810";
"120751";"ТАШАНТА (АВТО)";"9738812";
"113236";"ТАШКЕНТ (АВИА)";"9790811";
"113218";"ТБИЛИСИ (АВИА)";"9784811";
"119764";"ТВЕРЬ (АВИА)";"9701811";
"112856";"ТЕЛЬНОВСКИЙ (МОРЕ)";"9749814";
"120071";"ТЕМРЮК";"9728820";
"120072";"ТЕМРЮК (МОРЕ)";"9728824";
"112993";"ТЕПЛОЕ (АВТО)";"9756832";
"120833";"ТЕРЕСВА";"9777660";
"120834";"ТЕРЕСВА (Ж.Д.)";"9777663";
"120919";"ТЕРМЕЗ";"9788820";
"113228";"ТЕРМЕЗ (АВТО)";"9788822";
"120920";"ТЕРМЕЗ (РЕЧ.)";"9788825";
"119496";"ТЕРНОПОЛЬ";"9777690";
"128517";"ТЁТКИНО (Ж.Д)";"9723852";
"119926";"ТЕТКИНО-1 (АВТО)";"9723832";
"119927";"ТЕТКИНО-2 (АВТО)";"9723842";
"120835";"ТИСА";"9777790";
"120836";"ТИСА (АВТО)";"9777792";
"120053";"ТИТОВКА (АВТО)";"9725842";
"119964";"ТИШАНКА (АВТО)";"9724822";
"119497";"ТОПОЛИ";"9777850";
"112960";"ТОПОЛЬНОЕ (АВТО)";"9754812";
"119801";"ТОРГАЛЫГ (АВТО)";"9739792";
"119903";"ТОРФЯНОВКА (АВТО)";"9710832";
"112961";"ТРЕТЬЯКОВО (Ж.Д.)";"9754843";
"119777";"ТРОЕБОРТНОЕ (АВТО)";"9722832";
"113015";"ТРОИЦК";"9757800";
"113016";"ТРОИЦК-1 (Ж.Д.)";"9757803";
"113017";"ТРОИЦК-2 (Ж.Д.)";"9757813";
"119422";"ТУАПСЕ (МОРЕ)";"9730844";
"119765";"ТУНОШНА (ЯРОСЛАВЛЬ)(АВИА)";"9701841";
"128651";"ТУРЕЦКИЙ ВАЛ (АРМЯНСК) (АВТО)";"9791001";
"112817";"ТУРИЙ РОГ";"9747840";
"112818";"ТУРИЙ РОГ (АВТО)";"9747842";
"113231";"ТУРКМЕНБАШИ";"9789440";
"120918";"ТУРУГАРТ";"9787840";
"120764";"УБУР ТОХТОР (АВТО)";"9739812";
"120502";"УБЫЛИНКА";"9714850";
"120503";"УБЫЛИНКА (АВТО)";"9714852";
"112857";"УГЛЕГОРСК (МОРЕ)";"9749854";
"120837";"УЖГОРОД";"9778080";
"120838";"УЖГОРОД (АВИА)";"9778081";
"119498";"УЖГОРОД (АВТО)";"9778082";
"120668";"УЛАН-УДЭ";"9737850";
"120669";"УЛАН-УДЭ (АВИА)";"9737851";
"112994";"УЛЬЯНОВСК (АВИА)";"9756851";
"113205";"УНГЕНЫ";"9782850";
"113206";"УНГЕНЫ (АВТО)";"9782852";
"113207";"УНГЕНЫ (Ж.Д.)";"9782853";
"120504";"УНТИНО (АВТО)";"9714882";
"120839";"УСПЕНКА";"9778190";
"120054";"УСПЕНСКАЯ";"9725860";
"120055";"УСПЕНСКАЯ (Ж.Д.)";"9725863";
"112819";"УССУРИЙСК";"9747860";
"120840";"УСТИЛУГ";"9778220";
"119891";"УСТЬ-ЛУГА (МОРЕ)";"9709834";
"113018";"УФА (АВИА)";"9757861";
"120765";"УШ БЕЛЬДИР (АВТО)";"9739842";
"112786";"УШАКОВО";"9742860";
"120612";"УШАКОВО (АВТО)";"9742862";
"112787";"УШАКОВО (РЕЧ.)";"9742865";
"112882";"УЭЛЕН (МОРЕ)";"9753864";
"119499";"ФЕОДОСИЯ";"9778390";"27.05.2014 00:00:00.0"
"120841";"ФЕОДОСИЯ (МОРЕ)";"9778394";"27.05.2014 00:00:00.0"
"128654";"ФЕОДОСИЯ (МОРЕ)";"9791008";
"112995";"ФОМИН (АВТО)";"9756882";
"120474";"ХААПАВААРА (АВТО)";"9712772";
"120782";"ХАБАРОВСК";"9741880";
"120783";"ХАБАРОВСК (АВИА)";"9741881";
"120784";"ХАБАРОВСК (РЕЧ.)";"9741885";
"120766";"ХАНДАГАЙТЫ";"9739880";
"119802";"ХАНДАГАЙТЫ-1 (АВТО)";"9739882";
"120815";"ХАНТЫ-МАНСИЙСК (АВИА)";"9758881";
"113046";"ХАРАБАЛИ (АВТО)";"9759882";
"120842";"ХАРЬКОВ";"9778550";
"119500";"ХАРЬКОВ (АВИА)";"9778551";
"120843";"ХАРЬКОВ (АВТО)";"9778552";
"120844";"ХАРЬКОВ (Ж.Д.)";"9778553";
"112820";"ХАСАН (Ж.Д.)";"9747883";
"119851";"ХЕВОСКОССКАЯ ГЭС (АВТО)";"9703272";
"120401";"ХЕКСЕЛЯ (АВТО)";"9712282";
"119501";"ХЕРСОН";"9778710";
"120845";"ХЕРСОН (АВИА)";"9778711";
"119502";"ХЕРСОН (АВТО)";"9778712";
"120846";"ХЕРСОН (МОРЕ)";"9778714";
"120617";"ХОЛМСК";"9749890";
"112858";"ХОЛМСК (МОРЕ)";"9749894";
"119778";"ХОМУТОВКА";"9722890";
"119834";"ХОМУТОВКА (АВТО)";"9722892";
"120916";"ХОРГОС";"9786890";
"113223";"ХОРГОС (АВТО)";"9786892";
"112859";"ХОЭ (МОРЕ)";"9749914";
"120533";"ХРАБРОВО";"9718890";
"119790";"ХРАБРОВО (АВТО)";"9718892";
"120767";"ЦАГАН-ТОЛОГОЙ";"9739900";
"120768";"ЦАГАН-ТОЛОГОЙ (АВТО)";"9739902";
"120769";"ЦАГАН-ЧЕЛУТАЙ (АВТО)";"9739922";
"113019";"ЦЕЛИННЫЙ (АВТО)";"9757892";
"120630";"ЧАХ-ЧАХ (АВТО)";"9731902";
"112996";"ЧЕБОКСАРЫ (АВИА)";"9756911";
"113020";"ЧЕЛЯБИНСК (АВИА)";"9757911";
"128550";"ЧЕРЕПОВЕЦ";"9735575";
"113037";"ЧЕРЛАК (РЕЧ.)";"9758915";
"120847";"ЧЕРНИГОВ";"9779150";
"120848";"ЧЕРНОВЦЫ";"9779190";
"119503";"ЧЕРНОВЦЫ (АВИА)";"9779191";
"120849";"ЧЕРНОМОРЬЕ";"9779210";
"120850";"ЧЕРНЫЙ АРДОВ";"9779230";
"119792";"ЧЕРНЫШЕВСКОЕ";"9719910";
"120540";"ЧЕРНЫШЕВСКОЕ (АВТО)";"9719912";
"120541";"ЧЕРНЯХОВСК";"9719920";
"120542";"ЧЕРНЯХОВСК (АВИА)";"9719921";
"119841";"ЧЕРТКОВО (АВТО)";"9725922";
"120670";"ЧИТА (АВИА)";"9737911";
"119766";"ЧКАЛОВСКОЕ (АВИА)";"9701901";
"119504";"ЧОП";"9779310";
"120851";"ЧОП (АВТО)";"9779312";
"119505";"ЧОП (Ж.Д.)";"9779313";
"119779";"ЧУРОВИЧИ (АВТО)";"9722922";
"120770";"ШАРА-СУР (АВТО)";"9739952";
"112860";"ШАХТЕРСК";"9749930";
"120618";"ШАХТЕРСК (МОРЕ)";"9749934";
"119965";"ШЕБЕКИНО (АВТО)";"9724892";
"120852";"ШЕГИНИ";"9779450";
"120853";"ШЕГИНИ (АВТО)";"9779452";
"119767";"ШЕРЕМЕТЬЕВО (АВИА)";"9701931";
"119768";"ШЕРЕМЕТЬЕВО-1 (АВИА)";"9701941";
"119844";"ШЕРЕМЕТЬЕВО-2 (АВИА)";"9701951";
"120489";"ШУМИЛКИНО";"9713940";
"120490";"ШУМИЛКИНО (АВТО)";"9713942";
"119780";"ШУШАНЫ (АВТО)";"9722952";
"119506";"ЩОРС";"9779560";
"119416";"ЭЛИСТА";"9729960";
"119817";"ЭЛИСТА (АВИА)";"9729961";
"112966";"ЭЛЬТОН (Ж.Д.)";"9755893";
"119918";"ЮЖНАЯ ОЗЕРЕЕВКА (МОРЕ)";"9728934";
"112861";"ЮЖНО-КУРИЛЬСК";"9749970";
"112862";"ЮЖНО-КУРИЛЬСК (МОРЕ)";"9749974";
"112863";"ЮЖНО-САХАЛИНСК";"9749980";
"120619";"ЮЖНО-САХАЛИНСК (АВИА)";"9749981";
"120854";"ЮЖНЫЙ";"9779720";
"119507";"ЮЖНЫЙ (АВТО)";"9779722";
"120855";"ЮЖНЫЙ (МОРЕ)";"9779724";
"120856";"ЮНАКОВКА";"9779750";
"119508";"ЮНАКОВКА (АВТО)";"9779752";
"120857";"ЯГОДИН";"9779830";
"120858";"ЯГОДИН (АВТО)";"9779832";
"120859";"ЯГОДИН (Ж.Д.)";"9779833";
"119876";"ЯКУТСК";"9705970";
"119877";"ЯКУТСК (АВИА)";"9705971";
"119509";"ЯЛТА";"9779910";"27.05.2014 00:00:00.0"
"120860";"ЯЛТА (АВТО)";"9779912";"27.05.2014 00:00:00.0"
"119510";"ЯЛТА (МОРЕ)";"9779914";"27.05.2014 00:00:00.0"
"128655";"ЯЛТА (МОРЕ)";"9791009";
"119863";"ЯНИСКОСКИ (АВТО)";"9703912";
"120631";"ЯРАГ-КАЗМАЛЯР";"9731980";
"120632";"ЯРАГ-КАЗМАЛЯР (АВТО)";"9731982";
