﻿"ID";"NAME";"ACTUALITYSTATUS"
"2005152";"Прекращено по основаниям ст. 24.5 КоАП РФ";"Actual"
"2005151";"Неразрешение въезда";"Actual"
"7";"Реадмиссия";"Actual"
"102859";"Назначено адм. наказание";"Actual"
"102860";"Передача на рассмотрение в суд";"Actual"
"102861";"Направлено в адм. комиссию";"Actual"
"102862";"Направлено в комиссию по делам несовершеннолетних";"Actual"
"102863";"Передача дела на рассмотрение по подведомственности";"Historical"
"2005100";"Устное замечание в соответствии со ст. 2.9 КоАП РФ";"Actual"
"2005150";"Возврат для устранения недостатков";"Actual"
"1";"Административное выдворение";"Actual"
"2";"Депортация";"Actual"
"3";"Нежелательность временного пребывания";"Actual"
"4";"Нежелательность постоянного проживания";"Actual"
"5";"Привлечение к административной ответственности 2 и более раза в течение 3-х лет";"Actual"
"6";"Прекращено по основаниям ст. 24.5 КоАП РФ";"Actual"
