﻿"ID";"NAME";"ACTUALITYSTATUS"
"102982";"Паспорт гражданина СССР";"Actual"
"103007";"Загранпаспорт гражданина Российской Федерации";"Actual"
"103008";"Паспорт гражданина Российской Федерации";"Actual"
"136336";"Загранпаспорт нового поколения (с биометрией)";"Actual"
