﻿"ID";"NAME";"ACTUALITYSTATUS"
"102977";"Свидетельство о предоставлении временного убежища на территории Российской Федерации";"Actual"
"103000";"Удостоверение беженца в Российской Федерации";"Actual"
"139391";"Удостоверение беженца в Российской Федерации старого образца";"Actual"
