﻿"CODE";"NAME";"ACTUALITYSTATUS"
"11502";"По результатам проверки данных физического лица или юридического лица (филиала юридического лица)";"Actual"
"11503";"Документ не востребован Получателем услуги";"Actual"
"11504";"Установление в период рассмотрения заявления отсутствия оснований для выдачи Вида на жительство в РФ";"Actual"
"11505";"Смерть иностранного гражданина";"Actual"
"11506";"Объявление иностранного гражданина умершим";"Actual"
"11507";"Признание иностранного гражданина безвестно отсутствующим";"Actual"
"11508";"Признание иностранного гражданина беженцем";"Actual"
"11509";"Предоставление иностранному гражданину временного убежища";"Actual"
"11510";"Добровольный выезд иностранного гражданина из Российской Федерации";"Actual"
"7051";"Отказ Получателя услуги";"Actual"
"7052";"Смерть Получателя услуги";"Actual"
"7053";"Приобретение гражданства РФ Получателем услуги";"Actual"
"7054";"Передано на рассмотрение в другой регион";"Actual"
