﻿"CODE";"NAME";"ACTUALITYSTATUS"
"1032";"Выдать вид на жительство";"Actual"
"1033";"Решение не принято";"Actual"
"1034";"Отказать в выдаче вида на жительство";"Actual"
"1035";"Аннулировано";"Actual"
"1036";"Продлить вид на жительство";"Actual"
"1037";"Отказать в продлении";"Actual"
"1039";"Отменить решение об аннулировании вида на жительство";"Actual"
"1040";"Отменить решение об отказе в продлении вида на жительство";"Actual"
"1041";"Отменить решение об отказе в выдаче вида на жительство";"Actual"
