﻿"ID";"NAME";"ACTUALITYSTATUS"
"102968";"Дипломатический паспорт гражданина Российской Федерации";"Actual"
"102969";"Паспорт негражданина";"Actual"
"102982";"Паспорт гражданина СССР";"Actual"
"102985";"Загранпаспорт гражданина СССР";"Actual"
"102991";"Паспорт МинМорФлота";"Actual"
"103004";"Временный паспорт";"Actual"
"103007";"Загранпаспорт гражданина Российской Федерации";"Actual"
"103008";"Паспорт гражданина Российской Федерации";"Actual"
"103009";"Национальный заграничный паспорт";"Actual"
"103010";"Служебный паспорт";"Actual"
"103012";"Иностранный паспорт";"Actual"
"103020";"Национальный паспорт гражданина государств-участников СНГ";"Actual"
"103021";"Паспорт моряка";"Actual"
