﻿"ID";"NAME";"ACTUALITYSTATUS"
"100047";"Кандидат политических наук";"Actual"
"100000";"Доктор наук";"Actual"
"100001";"Кандидат наук";"Actual"
"100002";"Доктор физико-математических наук";"Actual"
"100003";"Доктор химических наук";"Actual"
"100004";"Доктор биологических наук";"Actual"
"100005";"Доктор геолого–минералогических наук";"Actual"
"100006";"Доктор технических наук";"Actual"
"100007";"Доктор сельскохозяйственных наук";"Actual"
"100008";"Доктор исторических наук";"Actual"
"100009";"Доктор экономических наук";"Actual"
"100010";"Доктор философских наук";"Actual"
"100011";"Доктор филологических наук";"Actual"
"100012";"Доктор географических наук";"Actual"
"100013";"Доктор юридических наук";"Actual"
"100014";"Доктор педагогических наук";"Actual"
"100015";"Доктор медицинских наук";"Actual"
"100016";"Доктор фармацевтических наук";"Actual"
"100017";"Доктор ветеринарных наук";"Actual"
"100018";"Доктор искусствоведческих наук";"Actual"
"100019";"Доктор архитектурных наук";"Actual"
"100020";"Доктор психологических наук";"Actual"
"100021";"Доктор военных наук";"Actual"
"100022";"Доктор социологических наук";"Actual"
"100023";"Доктор политических наук";"Actual"
"100024";"Доктор культурологических наук";"Actual"
"100025";"Доктор наук о Земле";"Actual"
"100026";"Кандидат физико-математических наук";"Actual"
"100027";"Кандидат химических наук";"Actual"
"100028";"Кандидат биологических наук";"Actual"
"100029";"Кандидат геолого–минералогических наук";"Actual"
"100030";"Кандидат технических наук";"Actual"
"100031";"Кандидат сельскохозяйственных наук";"Actual"
"100032";"Кандидат исторических наук";"Actual"
"100033";"Кандидат экономических наук";"Actual"
"100034";"Кандидат философских наук";"Actual"
"100035";"Кандидат филологических наук";"Actual"
"100036";"Кандидат географических наук";"Actual"
"100037";"Кандидат юридических наук";"Actual"
"100038";"Кандидат педагогических наук";"Actual"
"100039";"Кандидат медицинских наук";"Actual"
"100040";"Кандидат фармацевтических наук";"Actual"
"100041";"Кандидат ветеринарных наук";"Actual"
"100042";"Кандидат искусствоведческих наук";"Actual"
"100043";"Кандидат архитектурных наук";"Actual"
"100044";"Кандидат психологических наук";"Actual"
"100045";"Кандидат военных наук";"Actual"
"100046";"Кандидат социологических наук";"Actual"
"100048";"Кандидат культурологических наук";"Actual"
"100049";"Кандидат наук о Земле";"Actual"
