﻿"ID";"NAME";"ACTUALITYSTATUS"
"139362";"Смерть либо вступление в законную силу решения суда о признании безвестно отсутствующим или об объявлении умершим";"Actual"
"139363";"Убытие из места пребывания";"Actual"
