{
	"employee_ummsId": "1001",
	"supplierInfo": "1800000008002001",
	"sono": {
		"id": "128752",
		"text": "128752",
		"row": {
			"ID": "128752",
			"NAME": "Межрайонная инспекция Федеральной налоговой службы № 11 по Краснодарскому краю",
			"CODE": "2370"
		}
	},
	"subdivision": {
		"id": "3089",
		"text": "3089",
		"row": {
			"ID": "3089",
			"NAME": "МИЯКИНСКИЙ РОВД РЕСПУБЛИКИ БАШКОРТОСТАН",
			"CODE": "022-058"
		}
	},
	"ResponsibleOfficiers": [
		{
			"id": "0",
			"text": "0"
		}
	],
	"CurrentColaborator": {
		"id": "0",
		"text": "0"
	}
}